<?xml version='1.0' encoding='UTF-8' ?>
<svg xmlns='http://www.w3.org/2000/svg' xmlns:xlink='http://www.w3.org/1999/xlink' viewBox='0 0 720.00 432.00'>
<defs>
  <style type='text/css'><![CDATA[
    line, polyline, polygon, path, rect, circle {
      fill: none;
      stroke: #000000;
      stroke-linecap: round;
      stroke-linejoin: round;
      stroke-miterlimit: 10.00;
    }
  ]]></style>
</defs>
<rect width='100%' height='100%' style='stroke: none; fill: none;'/>
<rect x='0.00' y='0.000000000000057' width='720.00' height='432.00' style='stroke-width: 1.07; stroke: #FFFFFF; fill: #FFFFFF;' />
<defs>
  <clipPath id='cpMzUuNTd8NzE0LjUyfDQwMC41MXw2Mi4zOA=='>
    <rect x='35.57' y='62.38' width='678.95' height='338.13' />
  </clipPath>
</defs>
<rect x='35.57' y='62.38' width='678.95' height='338.13' style='stroke-width: 1.07; stroke: none; fill: #FFFFFF;' clip-path='url(#cpMzUuNTd8NzE0LjUyfDQwMC41MXw2Mi4zOA==)' />
<polyline points='35.57,344.53 714.52,344.53 ' style='stroke-width: 0.53; stroke: #EBEBEB; stroke-linecap: butt;' clip-path='url(#cpMzUuNTd8NzE0LjUyfDQwMC41MXw2Mi4zOA==)' />
<polyline points='35.57,274.48 714.52,274.48 ' style='stroke-width: 0.53; stroke: #EBEBEB; stroke-linecap: butt;' clip-path='url(#cpMzUuNTd8NzE0LjUyfDQwMC41MXw2Mi4zOA==)' />
<polyline points='35.57,204.44 714.52,204.44 ' style='stroke-width: 0.53; stroke: #EBEBEB; stroke-linecap: butt;' clip-path='url(#cpMzUuNTd8NzE0LjUyfDQwMC41MXw2Mi4zOA==)' />
<polyline points='35.57,134.39 714.52,134.39 ' style='stroke-width: 0.53; stroke: #EBEBEB; stroke-linecap: butt;' clip-path='url(#cpMzUuNTd8NzE0LjUyfDQwMC41MXw2Mi4zOA==)' />
<polyline points='35.57,64.34 714.52,64.34 ' style='stroke-width: 0.53; stroke: #EBEBEB; stroke-linecap: butt;' clip-path='url(#cpMzUuNTd8NzE0LjUyfDQwMC41MXw2Mi4zOA==)' />
<polyline points='143.59,400.51 143.59,62.38 ' style='stroke-width: 0.53; stroke: #EBEBEB; stroke-linecap: butt;' clip-path='url(#cpMzUuNTd8NzE0LjUyfDQwMC41MXw2Mi4zOA==)' />
<polyline points='297.89,400.51 297.89,62.38 ' style='stroke-width: 0.53; stroke: #EBEBEB; stroke-linecap: butt;' clip-path='url(#cpMzUuNTd8NzE0LjUyfDQwMC41MXw2Mi4zOA==)' />
<polyline points='452.20,400.51 452.20,62.38 ' style='stroke-width: 0.53; stroke: #EBEBEB; stroke-linecap: butt;' clip-path='url(#cpMzUuNTd8NzE0LjUyfDQwMC41MXw2Mi4zOA==)' />
<polyline points='606.51,400.51 606.51,62.38 ' style='stroke-width: 0.53; stroke: #EBEBEB; stroke-linecap: butt;' clip-path='url(#cpMzUuNTd8NzE0LjUyfDQwMC41MXw2Mi4zOA==)' />
<polyline points='35.57,379.55 714.52,379.55 ' style='stroke-width: 1.07; stroke: #EBEBEB; stroke-linecap: butt;' clip-path='url(#cpMzUuNTd8NzE0LjUyfDQwMC41MXw2Mi4zOA==)' />
<polyline points='35.57,309.50 714.52,309.50 ' style='stroke-width: 1.07; stroke: #EBEBEB; stroke-linecap: butt;' clip-path='url(#cpMzUuNTd8NzE0LjUyfDQwMC41MXw2Mi4zOA==)' />
<polyline points='35.57,239.46 714.52,239.46 ' style='stroke-width: 1.07; stroke: #EBEBEB; stroke-linecap: butt;' clip-path='url(#cpMzUuNTd8NzE0LjUyfDQwMC41MXw2Mi4zOA==)' />
<polyline points='35.57,169.41 714.52,169.41 ' style='stroke-width: 1.07; stroke: #EBEBEB; stroke-linecap: butt;' clip-path='url(#cpMzUuNTd8NzE0LjUyfDQwMC41MXw2Mi4zOA==)' />
<polyline points='35.57,99.37 714.52,99.37 ' style='stroke-width: 1.07; stroke: #EBEBEB; stroke-linecap: butt;' clip-path='url(#cpMzUuNTd8NzE0LjUyfDQwMC41MXw2Mi4zOA==)' />
<polyline points='66.43,400.51 66.43,62.38 ' style='stroke-width: 1.07; stroke: #EBEBEB; stroke-linecap: butt;' clip-path='url(#cpMzUuNTd8NzE0LjUyfDQwMC41MXw2Mi4zOA==)' />
<polyline points='220.74,400.51 220.74,62.38 ' style='stroke-width: 1.07; stroke: #EBEBEB; stroke-linecap: butt;' clip-path='url(#cpMzUuNTd8NzE0LjUyfDQwMC41MXw2Mi4zOA==)' />
<polyline points='375.05,400.51 375.05,62.38 ' style='stroke-width: 1.07; stroke: #EBEBEB; stroke-linecap: butt;' clip-path='url(#cpMzUuNTd8NzE0LjUyfDQwMC41MXw2Mi4zOA==)' />
<polyline points='529.35,400.51 529.35,62.38 ' style='stroke-width: 1.07; stroke: #EBEBEB; stroke-linecap: butt;' clip-path='url(#cpMzUuNTd8NzE0LjUyfDQwMC41MXw2Mi4zOA==)' />
<polyline points='683.66,400.51 683.66,62.38 ' style='stroke-width: 1.07; stroke: #EBEBEB; stroke-linecap: butt;' clip-path='url(#cpMzUuNTd8NzE0LjUyfDQwMC41MXw2Mi4zOA==)' />
<rect x='35.57' y='379.55' width='345.28' height='20.96' style='stroke-width: 1.07; stroke: none; stroke-linecap: square; stroke-linejoin: miter; fill: #FF0000; fill-opacity: 0.20;' clip-path='url(#cpMzUuNTd8NzE0LjUyfDQwMC41MXw2Mi4zOA==)' />
<rect x='380.85' y='379.55' width='333.67' height='20.96' style='stroke-width: 1.07; stroke: none; stroke-linecap: square; stroke-linejoin: miter; fill: #00FF00; fill-opacity: 0.20;' clip-path='url(#cpMzUuNTd8NzE0LjUyfDQwMC41MXw2Mi4zOA==)' />
<g clip-path='url(#cpMzUuNTd8NzE0LjUyfDQwMC41MXw2Mi4zOA==)'><text x='180.84' y='393.04' style='font-size: 11.04px; fill: #990000; font-family: Arial;' textLength='85.61px' lengthAdjust='spacingAndGlyphs'>No event (&lt; 0.08)</text></g>
<g clip-path='url(#cpMzUuNTd8NzE0LjUyfDQwMC41MXw2Mi4zOA==)'><text x='497.43' y='393.04' style='font-size: 11.04px; fill: #009900; font-family: Arial;' textLength='69.65px' lengthAdjust='spacingAndGlyphs'>Event (&gt; 0.08)</text></g>
<polygon points='381.37,100.37 382.14,100.26 382.92,100.18 383.69,100.13 384.46,100.11 385.23,100.11 386.00,100.14 386.77,100.21 387.55,100.29 388.32,100.41 389.09,100.55 389.86,100.73 390.63,100.92 391.40,101.15 392.17,101.41 392.95,101.69 393.72,102.00 394.49,102.34 395.26,102.70 396.03,103.09 396.80,103.51 397.58,103.96 398.35,104.43 399.12,104.93 399.89,105.45 400.66,106.01 401.43,106.58 402.20,107.19 402.98,107.82 403.75,108.47 404.52,109.15 405.29,109.86 406.06,110.59 406.83,111.35 407.61,112.13 408.38,112.94 409.15,113.76 409.92,114.62 410.69,115.49 411.46,116.40 412.23,117.32 413.01,118.27 413.78,119.23 414.55,120.23 415.32,121.24 416.09,122.27 416.86,123.33 417.64,124.41 418.41,125.51 419.18,126.63 419.95,127.77 420.72,128.93 421.49,130.11 422.26,131.30 423.04,132.52 423.81,133.76 424.58,135.01 425.35,136.28 426.12,137.57 426.89,138.88 427.67,140.20 428.44,141.54 429.21,142.90 429.98,144.27 430.75,145.66 431.52,147.06 432.29,148.48 433.07,149.91 433.84,151.36 434.61,152.82 435.38,154.29 436.15,155.78 436.92,157.27 437.69,158.78 438.47,160.30 439.24,161.84 440.01,163.38 440.78,164.94 441.55,166.50 442.32,168.07 443.10,169.66 443.87,171.25 444.64,172.85 445.41,174.46 446.18,176.08 446.95,177.70 447.72,179.33 448.50,180.97 449.27,182.62 450.04,184.27 450.81,185.92 451.58,187.58 452.35,189.25 453.13,190.92 453.90,192.59 454.67,194.27 455.44,195.95 456.21,197.64 456.98,199.32 457.75,201.01 458.53,202.70 459.30,204.40 460.07,206.09 460.84,207.78 461.61,209.48 462.38,211.17 463.16,212.87 463.93,214.56 464.70,216.26 465.47,217.95 466.24,219.64 467.01,221.33 467.78,223.01 468.56,224.70 469.33,226.38 470.10,228.06 470.87,229.73 471.64,231.40 472.41,233.07 473.19,234.73 473.96,236.39 474.73,238.04 475.50,239.69 476.27,241.33 477.04,242.97 477.81,244.60 478.59,246.23 479.36,247.85 480.13,249.46 480.90,251.06 481.67,252.66 482.44,254.25 483.22,255.84 483.99,257.41 484.76,258.98 485.53,260.54 486.30,262.09 487.07,263.63 487.84,265.16 488.62,266.69 489.39,268.20 490.16,269.71 490.93,271.21 491.70,272.69 492.47,274.17 493.25,275.64 494.02,277.09 494.79,278.54 495.56,279.97 496.33,281.40 497.10,282.81 497.87,284.22 498.65,285.61 499.42,286.99 500.19,288.36 500.96,289.72 501.73,291.07 502.50,292.40 503.28,293.73 504.05,295.04 504.82,296.34 505.59,297.63 506.36,298.91 507.13,300.18 507.90,301.43 508.68,302.67 509.45,303.90 510.22,305.12 510.99,306.32 511.76,307.51 512.53,308.69 513.31,309.86 514.08,311.02 514.85,312.16 515.62,313.29 516.39,314.41 517.16,315.51 517.93,316.61 518.71,317.69 519.48,318.75 520.25,319.81 521.02,320.85 521.79,321.88 522.56,322.90 523.33,323.91 524.11,324.90 524.88,325.88 525.65,326.85 526.42,327.81 527.19,328.75 527.96,329.68 528.74,330.60 529.51,331.51 530.28,332.41 531.05,333.29 531.82,334.16 532.59,335.02 533.36,335.87 534.14,336.70 534.91,337.53 535.68,338.34 536.45,339.14 537.22,339.93 537.99,340.71 538.77,341.47 539.54,342.23 540.31,342.97 541.08,343.70 541.85,344.42 542.62,345.13 543.39,345.83 544.17,346.52 544.94,347.20 545.71,347.86 546.48,348.52 547.25,349.17 548.02,349.80 548.80,350.42 549.57,351.04 550.34,351.64 551.11,352.24 551.88,352.82 552.65,353.40 553.42,353.96 554.20,354.51 554.97,355.06 555.74,355.60 556.51,356.12 557.28,356.64 558.05,357.15 558.83,357.65 559.60,358.14 560.37,358.62 561.14,359.09 561.91,359.55 562.68,360.01 563.45,360.45 564.23,360.89 565.00,361.32 565.77,361.74 566.54,362.16 567.31,362.56 568.08,362.96 568.86,363.35 569.63,363.74 570.40,364.11 571.17,364.48 571.94,364.84 572.71,365.19 573.48,365.54 574.26,365.88 575.03,366.21 575.80,366.54 576.57,366.86 577.34,367.17 578.11,367.47 578.89,367.77 579.66,368.07 580.43,368.35 581.20,368.63 581.97,368.91 582.74,369.18 583.51,369.44 584.29,369.70 585.06,369.95 585.83,370.20 586.60,370.44 587.37,370.67 588.14,370.91 588.92,371.13 589.69,371.35 590.46,371.57 591.23,371.78 592.00,371.98 592.77,372.18 593.54,372.38 594.32,372.57 595.09,372.76 595.86,372.94 596.63,373.12 597.40,373.30 598.17,373.47 598.95,373.63 599.72,373.79 600.49,373.95 601.26,374.11 602.03,374.26 602.80,374.41 603.57,374.55 604.35,374.69 605.12,374.83 605.89,374.96 606.66,375.09 607.43,375.22 608.20,375.34 608.97,375.46 609.75,375.58 610.52,375.69 611.29,375.80 612.06,375.91 612.83,376.02 613.60,376.12 614.38,376.22 615.15,376.32 615.92,376.41 616.69,376.51 617.46,376.60 618.23,376.69 619.00,376.77 619.78,376.85 620.55,376.94 621.32,377.01 622.09,377.09 622.86,377.17 623.63,377.24 624.41,377.31 625.18,377.38 625.95,377.44 626.72,377.51 627.49,377.57 628.26,377.63 629.03,377.69 629.81,377.75 630.58,377.81 631.35,377.86 632.12,377.92 632.89,377.97 633.66,378.02 634.44,378.07 635.21,378.11 635.98,378.16 636.75,378.20 637.52,378.25 638.29,378.29 639.06,378.33 639.84,378.37 640.61,378.41 641.38,378.45 642.15,378.48 642.92,378.52 643.69,378.55 644.47,378.58 645.24,378.62 646.01,378.65 646.78,378.68 647.55,378.71 648.32,378.74 649.09,378.76 649.87,378.79 650.64,378.82 651.41,378.84 652.18,378.86 652.95,378.89 653.72,378.91 654.50,378.93 655.27,378.95 656.04,378.97 656.81,378.99 657.58,379.01 658.35,379.03 659.12,379.05 659.90,379.07 660.67,379.08 661.44,379.10 662.21,379.12 662.98,379.13 663.75,379.15 664.53,379.16 665.30,379.18 666.07,379.19 666.84,379.20 667.61,379.21 668.38,379.23 669.15,379.24 669.93,379.25 670.70,379.26 671.47,379.27 672.24,379.28 673.01,379.29 673.78,379.30 674.56,379.31 675.33,379.32 676.10,379.33 676.87,379.34 677.64,379.34 678.41,379.35 679.18,379.36 679.96,379.37 680.73,379.37 681.50,379.38 682.27,379.39 683.04,379.39 683.04,379.55 682.27,379.55 681.50,379.55 680.73,379.55 679.96,379.55 679.18,379.55 678.41,379.55 677.64,379.55 676.87,379.55 676.10,379.55 675.33,379.55 674.56,379.55 673.78,379.55 673.01,379.55 672.24,379.55 671.47,379.55 670.70,379.55 669.93,379.55 669.15,379.55 668.38,379.55 667.61,379.55 666.84,379.55 666.07,379.55 665.30,379.55 664.53,379.55 663.75,379.55 662.98,379.55 662.21,379.55 661.44,379.55 660.67,379.55 659.90,379.55 659.12,379.55 658.35,379.55 657.58,379.55 656.81,379.55 656.04,379.55 655.27,379.55 654.50,379.55 653.72,379.55 652.95,379.55 652.18,379.55 651.41,379.55 650.64,379.55 649.87,379.55 649.09,379.55 648.32,379.55 647.55,379.55 646.78,379.55 646.01,379.55 645.24,379.55 644.47,379.55 643.69,379.55 642.92,379.55 642.15,379.55 641.38,379.55 640.61,379.55 639.84,379.55 639.06,379.55 638.29,379.55 637.52,379.55 636.75,379.55 635.98,379.55 635.21,379.55 634.44,379.55 633.66,379.55 632.89,379.55 632.12,379.55 631.35,379.55 630.58,379.55 629.81,379.55 629.03,379.55 628.26,379.55 627.49,379.55 626.72,379.55 625.95,379.55 625.18,379.55 624.41,379.55 623.63,379.55 622.86,379.55 622.09,379.55 621.32,379.55 620.55,379.55 619.78,379.55 619.00,379.55 618.23,379.55 617.46,379.55 616.69,379.55 615.92,379.55 615.15,379.55 614.38,379.55 613.60,379.55 612.83,379.55 612.06,379.55 611.29,379.55 610.52,379.55 609.75,379.55 608.97,379.55 608.20,379.55 607.43,379.55 606.66,379.55 605.89,379.55 605.12,379.55 604.35,379.55 603.57,379.55 602.80,379.55 602.03,379.55 601.26,379.55 600.49,379.55 599.72,379.55 598.95,379.55 598.17,379.55 597.40,379.55 596.63,379.55 595.86,379.55 595.09,379.55 594.32,379.55 593.54,379.55 592.77,379.55 592.00,379.55 591.23,379.55 590.46,379.55 589.69,379.55 588.92,379.55 588.14,379.55 587.37,379.55 586.60,379.55 585.83,379.55 585.06,379.55 584.29,379.55 583.51,379.55 582.74,379.55 581.97,379.55 581.20,379.55 580.43,379.55 579.66,379.55 578.89,379.55 578.11,379.55 577.34,379.55 576.57,379.55 575.80,379.55 575.03,379.55 574.26,379.55 573.48,379.55 572.71,379.55 571.94,379.55 571.17,379.55 570.40,379.55 569.63,379.55 568.86,379.55 568.08,379.55 567.31,379.55 566.54,379.55 565.77,379.55 565.00,379.55 564.23,379.55 563.45,379.55 562.68,379.55 561.91,379.55 561.14,379.55 560.37,379.55 559.60,379.55 558.83,379.55 558.05,379.55 557.28,379.55 556.51,379.55 555.74,379.55 554.97,379.55 554.20,379.55 553.42,379.55 552.65,379.55 551.88,379.55 551.11,379.55 550.34,379.55 549.57,379.55 548.80,379.55 548.02,379.55 547.25,379.55 546.48,379.55 545.71,379.55 544.94,379.55 544.17,379.55 543.39,379.55 542.62,379.55 541.85,379.55 541.08,379.55 540.31,379.55 539.54,379.55 538.77,379.55 537.99,379.55 537.22,379.55 536.45,379.55 535.68,379.55 534.91,379.55 534.14,379.55 533.36,379.55 532.59,379.55 531.82,379.55 531.05,379.55 530.28,379.55 529.51,379.55 528.74,379.55 527.96,379.55 527.19,379.55 526.42,379.55 525.65,379.55 524.88,379.55 524.11,379.55 523.33,379.55 522.56,379.55 521.79,379.55 521.02,379.55 520.25,379.55 519.48,379.55 518.71,379.55 517.93,379.55 517.16,379.55 516.39,379.55 515.62,379.55 514.85,379.55 514.08,379.55 513.31,379.55 512.53,379.55 511.76,379.55 510.99,379.55 510.22,379.55 509.45,379.55 508.68,379.55 507.90,379.55 507.13,379.55 506.36,379.55 505.59,379.55 504.82,379.55 504.05,379.55 503.28,379.55 502.50,379.55 501.73,379.55 500.96,379.55 500.19,379.55 499.42,379.55 498.65,379.55 497.87,379.55 497.10,379.55 496.33,379.55 495.56,379.55 494.79,379.55 494.02,379.55 493.25,379.55 492.47,379.55 491.70,379.55 490.93,379.55 490.16,379.55 489.39,379.55 488.62,379.55 487.84,379.55 487.07,379.55 486.30,379.55 485.53,379.55 484.76,379.55 483.99,379.55 483.22,379.55 482.44,379.55 481.67,379.55 480.90,379.55 480.13,379.55 479.36,379.55 478.59,379.55 477.81,379.55 477.04,379.55 476.27,379.55 475.50,379.55 474.73,379.55 473.96,379.55 473.19,379.55 472.41,379.55 471.64,379.55 470.87,379.55 470.10,379.55 469.33,379.55 468.56,379.55 467.78,379.55 467.01,379.55 466.24,379.55 465.47,379.55 464.70,379.55 463.93,379.55 463.16,379.55 462.38,379.55 461.61,379.55 460.84,379.55 460.07,379.55 459.30,379.55 458.53,379.55 457.75,379.55 456.98,379.55 456.21,379.55 455.44,379.55 454.67,379.55 453.90,379.55 453.13,379.55 452.35,379.55 451.58,379.55 450.81,379.55 450.04,379.55 449.27,379.55 448.50,379.55 447.72,379.55 446.95,379.55 446.18,379.55 445.41,379.55 444.64,379.55 443.87,379.55 443.10,379.55 442.32,379.55 441.55,379.55 440.78,379.55 440.01,379.55 439.24,379.55 438.47,379.55 437.69,379.55 436.92,379.55 436.15,379.55 435.38,379.55 434.61,379.55 433.84,379.55 433.07,379.55 432.29,379.55 431.52,379.55 430.75,379.55 429.98,379.55 429.21,379.55 428.44,379.55 427.67,379.55 426.89,379.55 426.12,379.55 425.35,379.55 424.58,379.55 423.81,379.55 423.04,379.55 422.26,379.55 421.49,379.55 420.72,379.55 419.95,379.55 419.18,379.55 418.41,379.55 417.64,379.55 416.86,379.55 416.09,379.55 415.32,379.55 414.55,379.55 413.78,379.55 413.01,379.55 412.23,379.55 411.46,379.55 410.69,379.55 409.92,379.55 409.15,379.55 408.38,379.55 407.61,379.55 406.83,379.55 406.06,379.55 405.29,379.55 404.52,379.55 403.75,379.55 402.98,379.55 402.20,379.55 401.43,379.55 400.66,379.55 399.89,379.55 399.12,379.55 398.35,379.55 397.58,379.55 396.80,379.55 396.03,379.55 395.26,379.55 394.49,379.55 393.72,379.55 392.95,379.55 392.17,379.55 391.40,379.55 390.63,379.55 389.86,379.55 389.09,379.55 388.32,379.55 387.55,379.55 386.77,379.55 386.00,379.55 385.23,379.55 384.46,379.55 383.69,379.55 382.92,379.55 382.14,379.55 381.37,379.55 ' style='stroke-width: 0.00; stroke: none; fill: #172F47; fill-opacity: 0.66;' clip-path='url(#cpMzUuNTd8NzE0LjUyfDQwMC41MXw2Mi4zOA==)' />
<polyline points='381.37,100.37 382.14,100.26 382.92,100.18 383.69,100.13 384.46,100.11 385.23,100.11 386.00,100.14 386.77,100.21 387.55,100.29 388.32,100.41 389.09,100.55 389.86,100.73 390.63,100.92 391.40,101.15 392.17,101.41 392.95,101.69 393.72,102.00 394.49,102.34 395.26,102.70 396.03,103.09 396.80,103.51 397.58,103.96 398.35,104.43 399.12,104.93 399.89,105.45 400.66,106.01 401.43,106.58 402.20,107.19 402.98,107.82 403.75,108.47 404.52,109.15 405.29,109.86 406.06,110.59 406.83,111.35 407.61,112.13 408.38,112.94 409.15,113.76 409.92,114.62 410.69,115.49 411.46,116.40 412.23,117.32 413.01,118.27 413.78,119.23 414.55,120.23 415.32,121.24 416.09,122.27 416.86,123.33 417.64,124.41 418.41,125.51 419.18,126.63 419.95,127.77 420.72,128.93 421.49,130.11 422.26,131.30 423.04,132.52 423.81,133.76 424.58,135.01 425.35,136.28 426.12,137.57 426.89,138.88 427.67,140.20 428.44,141.54 429.21,142.90 429.98,144.27 430.75,145.66 431.52,147.06 432.29,148.48 433.07,149.91 433.84,151.36 434.61,152.82 435.38,154.29 436.15,155.78 436.92,157.27 437.69,158.78 438.47,160.30 439.24,161.84 440.01,163.38 440.78,164.94 441.55,166.50 442.32,168.07 443.10,169.66 443.87,171.25 444.64,172.85 445.41,174.46 446.18,176.08 446.95,177.70 447.72,179.33 448.50,180.97 449.27,182.62 450.04,184.27 450.81,185.92 451.58,187.58 452.35,189.25 453.13,190.92 453.90,192.59 454.67,194.27 455.44,195.95 456.21,197.64 456.98,199.32 457.75,201.01 458.53,202.70 459.30,204.40 460.07,206.09 460.84,207.78 461.61,209.48 462.38,211.17 463.16,212.87 463.93,214.56 464.70,216.26 465.47,217.95 466.24,219.64 467.01,221.33 467.78,223.01 468.56,224.70 469.33,226.38 470.10,228.06 470.87,229.73 471.64,231.40 472.41,233.07 473.19,234.73 473.96,236.39 474.73,238.04 475.50,239.69 476.27,241.33 477.04,242.97 477.81,244.60 478.59,246.23 479.36,247.85 480.13,249.46 480.90,251.06 481.67,252.66 482.44,254.25 483.22,255.84 483.99,257.41 484.76,258.98 485.53,260.54 486.30,262.09 487.07,263.63 487.84,265.16 488.62,266.69 489.39,268.20 490.16,269.71 490.93,271.21 491.70,272.69 492.47,274.17 493.25,275.64 494.02,277.09 494.79,278.54 495.56,279.97 496.33,281.40 497.10,282.81 497.87,284.22 498.65,285.61 499.42,286.99 500.19,288.36 500.96,289.72 501.73,291.07 502.50,292.40 503.28,293.73 504.05,295.04 504.82,296.34 505.59,297.63 506.36,298.91 507.13,300.18 507.90,301.43 508.68,302.67 509.45,303.90 510.22,305.12 510.99,306.32 511.76,307.51 512.53,308.69 513.31,309.86 514.08,311.02 514.85,312.16 515.62,313.29 516.39,314.41 517.16,315.51 517.93,316.61 518.71,317.69 519.48,318.75 520.25,319.81 521.02,320.85 521.79,321.88 522.56,322.90 523.33,323.91 524.11,324.90 524.88,325.88 525.65,326.85 526.42,327.81 527.19,328.75 527.96,329.68 528.74,330.60 529.51,331.51 530.28,332.41 531.05,333.29 531.82,334.16 532.59,335.02 533.36,335.87 534.14,336.70 534.91,337.53 535.68,338.34 536.45,339.14 537.22,339.93 537.99,340.71 538.77,341.47 539.54,342.23 540.31,342.97 541.08,343.70 541.85,344.42 542.62,345.13 543.39,345.83 544.17,346.52 544.94,347.20 545.71,347.86 546.48,348.52 547.25,349.17 548.02,349.80 548.80,350.42 549.57,351.04 550.34,351.64 551.11,352.24 551.88,352.82 552.65,353.40 553.42,353.96 554.20,354.51 554.97,355.06 555.74,355.60 556.51,356.12 557.28,356.64 558.05,357.15 558.83,357.65 559.60,358.14 560.37,358.62 561.14,359.09 561.91,359.55 562.68,360.01 563.45,360.45 564.23,360.89 565.00,361.32 565.77,361.74 566.54,362.16 567.31,362.56 568.08,362.96 568.86,363.35 569.63,363.74 570.40,364.11 571.17,364.48 571.94,364.84 572.71,365.19 573.48,365.54 574.26,365.88 575.03,366.21 575.80,366.54 576.57,366.86 577.34,367.17 578.11,367.47 578.89,367.77 579.66,368.07 580.43,368.35 581.20,368.63 581.97,368.91 582.74,369.18 583.51,369.44 584.29,369.70 585.06,369.95 585.83,370.20 586.60,370.44 587.37,370.67 588.14,370.91 588.92,371.13 589.69,371.35 590.46,371.57 591.23,371.78 592.00,371.98 592.77,372.18 593.54,372.38 594.32,372.57 595.09,372.76 595.86,372.94 596.63,373.12 597.40,373.30 598.17,373.47 598.95,373.63 599.72,373.79 600.49,373.95 601.26,374.11 602.03,374.26 602.80,374.41 603.57,374.55 604.35,374.69 605.12,374.83 605.89,374.96 606.66,375.09 607.43,375.22 608.20,375.34 608.97,375.46 609.75,375.58 610.52,375.69 611.29,375.80 612.06,375.91 612.83,376.02 613.60,376.12 614.38,376.22 615.15,376.32 615.92,376.41 616.69,376.51 617.46,376.60 618.23,376.69 619.00,376.77 619.78,376.85 620.55,376.94 621.32,377.01 622.09,377.09 622.86,377.17 623.63,377.24 624.41,377.31 625.18,377.38 625.95,377.44 626.72,377.51 627.49,377.57 628.26,377.63 629.03,377.69 629.81,377.75 630.58,377.81 631.35,377.86 632.12,377.92 632.89,377.97 633.66,378.02 634.44,378.07 635.21,378.11 635.98,378.16 636.75,378.20 637.52,378.25 638.29,378.29 639.06,378.33 639.84,378.37 640.61,378.41 641.38,378.45 642.15,378.48 642.92,378.52 643.69,378.55 644.47,378.58 645.24,378.62 646.01,378.65 646.78,378.68 647.55,378.71 648.32,378.74 649.09,378.76 649.87,378.79 650.64,378.82 651.41,378.84 652.18,378.86 652.95,378.89 653.72,378.91 654.50,378.93 655.27,378.95 656.04,378.97 656.81,378.99 657.58,379.01 658.35,379.03 659.12,379.05 659.90,379.07 660.67,379.08 661.44,379.10 662.21,379.12 662.98,379.13 663.75,379.15 664.53,379.16 665.30,379.18 666.07,379.19 666.84,379.20 667.61,379.21 668.38,379.23 669.15,379.24 669.93,379.25 670.70,379.26 671.47,379.27 672.24,379.28 673.01,379.29 673.78,379.30 674.56,379.31 675.33,379.32 676.10,379.33 676.87,379.34 677.64,379.34 678.41,379.35 679.18,379.36 679.96,379.37 680.73,379.37 681.50,379.38 682.27,379.39 683.04,379.39 ' style='stroke-width: 1.07; stroke: none;' clip-path='url(#cpMzUuNTd8NzE0LjUyfDQwMC41MXw2Mi4zOA==)' />
<polyline points='683.04,379.55 682.27,379.55 681.50,379.55 680.73,379.55 679.96,379.55 679.18,379.55 678.41,379.55 677.64,379.55 676.87,379.55 676.10,379.55 675.33,379.55 674.56,379.55 673.78,379.55 673.01,379.55 672.24,379.55 671.47,379.55 670.70,379.55 669.93,379.55 669.15,379.55 668.38,379.55 667.61,379.55 666.84,379.55 666.07,379.55 665.30,379.55 664.53,379.55 663.75,379.55 662.98,379.55 662.21,379.55 661.44,379.55 660.67,379.55 659.90,379.55 659.12,379.55 658.35,379.55 657.58,379.55 656.81,379.55 656.04,379.55 655.27,379.55 654.50,379.55 653.72,379.55 652.95,379.55 652.18,379.55 651.41,379.55 650.64,379.55 649.87,379.55 649.09,379.55 648.32,379.55 647.55,379.55 646.78,379.55 646.01,379.55 645.24,379.55 644.47,379.55 643.69,379.55 642.92,379.55 642.15,379.55 641.38,379.55 640.61,379.55 639.84,379.55 639.06,379.55 638.29,379.55 637.52,379.55 636.75,379.55 635.98,379.55 635.21,379.55 634.44,379.55 633.66,379.55 632.89,379.55 632.12,379.55 631.35,379.55 630.58,379.55 629.81,379.55 629.03,379.55 628.26,379.55 627.49,379.55 626.72,379.55 625.95,379.55 625.18,379.55 624.41,379.55 623.63,379.55 622.86,379.55 622.09,379.55 621.32,379.55 620.55,379.55 619.78,379.55 619.00,379.55 618.23,379.55 617.46,379.55 616.69,379.55 615.92,379.55 615.15,379.55 614.38,379.55 613.60,379.55 612.83,379.55 612.06,379.55 611.29,379.55 610.52,379.55 609.75,379.55 608.97,379.55 608.20,379.55 607.43,379.55 606.66,379.55 605.89,379.55 605.12,379.55 604.35,379.55 603.57,379.55 602.80,379.55 602.03,379.55 601.26,379.55 600.49,379.55 599.72,379.55 598.95,379.55 598.17,379.55 597.40,379.55 596.63,379.55 595.86,379.55 595.09,379.55 594.32,379.55 593.54,379.55 592.77,379.55 592.00,379.55 591.23,379.55 590.46,379.55 589.69,379.55 588.92,379.55 588.14,379.55 587.37,379.55 586.60,379.55 585.83,379.55 585.06,379.55 584.29,379.55 583.51,379.55 582.74,379.55 581.97,379.55 581.20,379.55 580.43,379.55 579.66,379.55 578.89,379.55 578.11,379.55 577.34,379.55 576.57,379.55 575.80,379.55 575.03,379.55 574.26,379.55 573.48,379.55 572.71,379.55 571.94,379.55 571.17,379.55 570.40,379.55 569.63,379.55 568.86,379.55 568.08,379.55 567.31,379.55 566.54,379.55 565.77,379.55 565.00,379.55 564.23,379.55 563.45,379.55 562.68,379.55 561.91,379.55 561.14,379.55 560.37,379.55 559.60,379.55 558.83,379.55 558.05,379.55 557.28,379.55 556.51,379.55 555.74,379.55 554.97,379.55 554.20,379.55 553.42,379.55 552.65,379.55 551.88,379.55 551.11,379.55 550.34,379.55 549.57,379.55 548.80,379.55 548.02,379.55 547.25,379.55 546.48,379.55 545.71,379.55 544.94,379.55 544.17,379.55 543.39,379.55 542.62,379.55 541.85,379.55 541.08,379.55 540.31,379.55 539.54,379.55 538.77,379.55 537.99,379.55 537.22,379.55 536.45,379.55 535.68,379.55 534.91,379.55 534.14,379.55 533.36,379.55 532.59,379.55 531.82,379.55 531.05,379.55 530.28,379.55 529.51,379.55 528.74,379.55 527.96,379.55 527.19,379.55 526.42,379.55 525.65,379.55 524.88,379.55 524.11,379.55 523.33,379.55 522.56,379.55 521.79,379.55 521.02,379.55 520.25,379.55 519.48,379.55 518.71,379.55 517.93,379.55 517.16,379.55 516.39,379.55 515.62,379.55 514.85,379.55 514.08,379.55 513.31,379.55 512.53,379.55 511.76,379.55 510.99,379.55 510.22,379.55 509.45,379.55 508.68,379.55 507.90,379.55 507.13,379.55 506.36,379.55 505.59,379.55 504.82,379.55 504.05,379.55 503.28,379.55 502.50,379.55 501.73,379.55 500.96,379.55 500.19,379.55 499.42,379.55 498.65,379.55 497.87,379.55 497.10,379.55 496.33,379.55 495.56,379.55 494.79,379.55 494.02,379.55 493.25,379.55 492.47,379.55 491.70,379.55 490.93,379.55 490.16,379.55 489.39,379.55 488.62,379.55 487.84,379.55 487.07,379.55 486.30,379.55 485.53,379.55 484.76,379.55 483.99,379.55 483.22,379.55 482.44,379.55 481.67,379.55 480.90,379.55 480.13,379.55 479.36,379.55 478.59,379.55 477.81,379.55 477.04,379.55 476.27,379.55 475.50,379.55 474.73,379.55 473.96,379.55 473.19,379.55 472.41,379.55 471.64,379.55 470.87,379.55 470.10,379.55 469.33,379.55 468.56,379.55 467.78,379.55 467.01,379.55 466.24,379.55 465.47,379.55 464.70,379.55 463.93,379.55 463.16,379.55 462.38,379.55 461.61,379.55 460.84,379.55 460.07,379.55 459.30,379.55 458.53,379.55 457.75,379.55 456.98,379.55 456.21,379.55 455.44,379.55 454.67,379.55 453.90,379.55 453.13,379.55 452.35,379.55 451.58,379.55 450.81,379.55 450.04,379.55 449.27,379.55 448.50,379.55 447.72,379.55 446.95,379.55 446.18,379.55 445.41,379.55 444.64,379.55 443.87,379.55 443.10,379.55 442.32,379.55 441.55,379.55 440.78,379.55 440.01,379.55 439.24,379.55 438.47,379.55 437.69,379.55 436.92,379.55 436.15,379.55 435.38,379.55 434.61,379.55 433.84,379.55 433.07,379.55 432.29,379.55 431.52,379.55 430.75,379.55 429.98,379.55 429.21,379.55 428.44,379.55 427.67,379.55 426.89,379.55 426.12,379.55 425.35,379.55 424.58,379.55 423.81,379.55 423.04,379.55 422.26,379.55 421.49,379.55 420.72,379.55 419.95,379.55 419.18,379.55 418.41,379.55 417.64,379.55 416.86,379.55 416.09,379.55 415.32,379.55 414.55,379.55 413.78,379.55 413.01,379.55 412.23,379.55 411.46,379.55 410.69,379.55 409.92,379.55 409.15,379.55 408.38,379.55 407.61,379.55 406.83,379.55 406.06,379.55 405.29,379.55 404.52,379.55 403.75,379.55 402.98,379.55 402.20,379.55 401.43,379.55 400.66,379.55 399.89,379.55 399.12,379.55 398.35,379.55 397.58,379.55 396.80,379.55 396.03,379.55 395.26,379.55 394.49,379.55 393.72,379.55 392.95,379.55 392.17,379.55 391.40,379.55 390.63,379.55 389.86,379.55 389.09,379.55 388.32,379.55 387.55,379.55 386.77,379.55 386.00,379.55 385.23,379.55 384.46,379.55 383.69,379.55 382.92,379.55 382.14,379.55 381.37,379.55 ' style='stroke-width: 1.07; stroke: none;' clip-path='url(#cpMzUuNTd8NzE0LjUyfDQwMC41MXw2Mi4zOA==)' />
<polyline points='66.59,379.49 67.36,379.49 68.13,379.49 68.90,379.49 69.67,379.48 70.45,379.48 71.22,379.48 71.99,379.48 72.76,379.47 73.53,379.47 74.30,379.47 75.08,379.46 75.85,379.46 76.62,379.45 77.39,379.45 78.16,379.45 78.93,379.44 79.70,379.44 80.48,379.43 81.25,379.43 82.02,379.42 82.79,379.42 83.56,379.41 84.33,379.41 85.11,379.40 85.88,379.40 86.65,379.39 87.42,379.38 88.19,379.38 88.96,379.37 89.73,379.36 90.51,379.36 91.28,379.35 92.05,379.34 92.82,379.33 93.59,379.32 94.36,379.32 95.14,379.31 95.91,379.30 96.68,379.29 97.45,379.28 98.22,379.27 98.99,379.26 99.76,379.25 100.54,379.23 101.31,379.22 102.08,379.21 102.85,379.20 103.62,379.18 104.39,379.17 105.16,379.16 105.94,379.14 106.71,379.13 107.48,379.11 108.25,379.10 109.02,379.08 109.79,379.06 110.57,379.04 111.34,379.03 112.11,379.01 112.88,378.99 113.65,378.97 114.42,378.95 115.19,378.93 115.97,378.90 116.74,378.88 117.51,378.86 118.28,378.83 119.05,378.81 119.82,378.78 120.60,378.75 121.37,378.73 122.14,378.70 122.91,378.67 123.68,378.64 124.45,378.61 125.22,378.57 126.00,378.54 126.77,378.51 127.54,378.47 128.31,378.43 129.08,378.40 129.85,378.36 130.63,378.32 131.40,378.28 132.17,378.23 132.94,378.19 133.71,378.15 134.48,378.10 135.25,378.05 136.03,378.00 136.80,377.95 137.57,377.90 138.34,377.85 139.11,377.79 139.88,377.73 140.66,377.67 141.43,377.61 142.20,377.55 142.97,377.49 143.74,377.42 144.51,377.36 145.28,377.29 146.06,377.22 146.83,377.14 147.60,377.07 148.37,376.99 149.14,376.91 149.91,376.83 150.69,376.74 151.46,376.66 152.23,376.57 153.00,376.48 153.77,376.38 154.54,376.29 155.31,376.19 156.09,376.09 156.86,375.98 157.63,375.88 158.40,375.77 159.17,375.66 159.94,375.54 160.72,375.42 161.49,375.30 162.26,375.18 163.03,375.05 163.80,374.92 164.57,374.78 165.34,374.65 166.12,374.50 166.89,374.36 167.66,374.21 168.43,374.06 169.20,373.90 169.97,373.74 170.75,373.58 171.52,373.41 172.29,373.24 173.06,373.07 173.83,372.89 174.60,372.70 175.37,372.51 176.15,372.32 176.92,372.12 177.69,371.92 178.46,371.71 179.23,371.50 180.00,371.28 180.78,371.06 181.55,370.83 182.32,370.60 183.09,370.36 183.86,370.12 184.63,369.87 185.40,369.62 186.18,369.36 186.95,369.09 187.72,368.82 188.49,368.55 189.26,368.26 190.03,367.97 190.80,367.68 191.58,367.38 192.35,367.07 193.12,366.76 193.89,366.43 194.66,366.11 195.43,365.77 196.21,365.43 196.98,365.08 197.75,364.73 198.52,364.36 199.29,363.99 200.06,363.62 200.83,363.23 201.61,362.84 202.38,362.44 203.15,362.03 203.92,361.61 204.69,361.19 205.46,360.75 206.24,360.31 207.01,359.86 207.78,359.41 208.55,358.94 209.32,358.47 210.09,357.98 210.86,357.49 211.64,356.99 212.41,356.48 213.18,355.96 213.95,355.43 214.72,354.89 215.49,354.34 216.27,353.78 217.04,353.22 217.81,352.64 218.58,352.05 219.35,351.45 220.12,350.85 220.89,350.23 221.67,349.60 222.44,348.96 223.21,348.31 223.98,347.66 224.75,346.99 225.52,346.30 226.30,345.61 227.07,344.91 227.84,344.20 228.61,343.47 229.38,342.74 230.15,341.99 230.92,341.23 231.70,340.46 232.47,339.68 233.24,338.89 234.01,338.09 234.78,337.27 235.55,336.44 236.33,335.60 237.10,334.75 237.87,333.89 238.64,333.01 239.41,332.13 240.18,331.23 240.95,330.31 241.73,329.39 242.50,328.46 243.27,327.51 244.04,326.55 244.81,325.57 245.58,324.59 246.36,323.59 247.13,322.58 247.90,321.56 248.67,320.53 249.44,319.48 250.21,318.42 250.98,317.35 251.76,316.26 252.53,315.17 253.30,314.06 254.07,312.93 254.84,311.80 255.61,310.65 256.39,309.49 257.16,308.32 257.93,307.14 258.70,305.94 259.47,304.73 260.24,303.51 261.01,302.28 261.79,301.03 262.56,299.78 263.33,298.51 264.10,297.23 264.87,295.93 265.64,294.63 266.42,293.31 267.19,291.99 267.96,290.65 268.73,289.29 269.50,287.93 270.27,286.56 271.04,285.17 271.82,283.78 272.59,282.37 273.36,280.95 274.13,279.52 274.90,278.08 275.67,276.63 276.44,275.17 277.22,273.70 277.99,272.22 278.76,270.74 279.53,269.24 280.30,267.73 281.07,266.21 281.85,264.68 282.62,263.15 283.39,261.60 284.16,260.05 284.93,258.49 285.70,256.92 286.47,255.34 287.25,253.75 288.02,252.16 288.79,250.56 289.56,248.95 290.33,247.34 291.10,245.72 291.88,244.09 292.65,242.46 293.42,240.82 294.19,239.17 294.96,237.52 295.73,235.87 296.50,234.21 297.28,232.54 298.05,230.88 298.82,229.20 299.59,227.53 300.36,225.85 301.13,224.17 301.91,222.48 302.68,220.80 303.45,219.11 304.22,217.41 304.99,215.72 305.76,214.03 306.53,212.33 307.31,210.64 308.08,208.94 308.85,207.25 309.62,205.56 310.39,203.86 311.16,202.17 311.94,200.48 312.71,198.79 313.48,197.11 314.25,195.42 315.02,193.74 315.79,192.07 316.56,190.39 317.34,188.72 318.11,187.06 318.88,185.40 319.65,183.75 320.42,182.10 321.19,180.45 321.97,178.82 322.74,177.19 323.51,175.57 324.28,173.95 325.05,172.35 325.82,170.75 326.59,169.16 327.37,167.58 328.14,166.01 328.91,164.44 329.68,162.89 330.45,161.35 331.22,159.82 332.00,158.31 332.77,156.80 333.54,155.31 334.31,153.83 335.08,152.36 335.85,150.90 336.62,149.46 337.40,148.03 338.17,146.62 338.94,145.22 339.71,143.84 340.48,142.47 341.25,141.12 342.03,139.78 342.80,138.47 343.57,137.16 344.34,135.88 345.11,134.61 345.88,133.37 346.65,132.14 347.43,130.92 348.20,129.73 348.97,128.56 349.74,127.41 350.51,126.27 351.28,125.16 352.05,124.07 352.83,123.00 353.60,121.95 354.37,120.92 355.14,119.91 355.91,118.93 356.68,117.96 357.46,117.03 358.23,116.11 359.00,115.22 359.77,114.35 360.54,113.50 361.31,112.68 362.08,111.88 362.86,111.11 363.63,110.36 364.40,109.64 365.17,108.94 365.94,108.26 366.71,107.62 367.49,106.99 368.26,106.40 369.03,105.83 369.80,105.29 370.57,104.77 371.34,104.28 372.11,103.81 372.89,103.38 373.66,102.97 374.43,102.58 375.20,102.23 375.97,101.90 376.74,101.60 377.52,101.32 378.29,101.08 379.06,100.86 379.83,100.67 380.60,100.51 381.37,100.37 382.14,100.26 382.92,100.18 383.69,100.13 384.46,100.11 385.23,100.11 386.00,100.14 386.77,100.21 387.55,100.29 388.32,100.41 389.09,100.55 389.86,100.73 390.63,100.92 391.40,101.15 392.17,101.41 392.95,101.69 393.72,102.00 394.49,102.34 395.26,102.70 396.03,103.09 396.80,103.51 397.58,103.96 398.35,104.43 399.12,104.93 399.89,105.45 400.66,106.01 401.43,106.58 402.20,107.19 402.98,107.82 403.75,108.47 404.52,109.15 405.29,109.86 406.06,110.59 406.83,111.35 407.61,112.13 408.38,112.94 409.15,113.76 409.92,114.62 410.69,115.49 411.46,116.40 412.23,117.32 413.01,118.27 413.78,119.23 414.55,120.23 415.32,121.24 416.09,122.27 416.86,123.33 417.64,124.41 418.41,125.51 419.18,126.63 419.95,127.77 420.72,128.93 421.49,130.11 422.26,131.30 423.04,132.52 423.81,133.76 424.58,135.01 425.35,136.28 426.12,137.57 426.89,138.88 427.67,140.20 428.44,141.54 429.21,142.90 429.98,144.27 430.75,145.66 431.52,147.06 432.29,148.48 433.07,149.91 433.84,151.36 434.61,152.82 435.38,154.29 436.15,155.78 436.92,157.27 437.69,158.78 438.47,160.30 439.24,161.84 440.01,163.38 440.78,164.94 441.55,166.50 442.32,168.07 443.10,169.66 443.87,171.25 444.64,172.85 445.41,174.46 446.18,176.08 446.95,177.70 447.72,179.33 448.50,180.97 449.27,182.62 450.04,184.27 450.81,185.92 451.58,187.58 452.35,189.25 453.13,190.92 453.90,192.59 454.67,194.27 455.44,195.95 456.21,197.64 456.98,199.32 457.75,201.01 458.53,202.70 459.30,204.40 460.07,206.09 460.84,207.78 461.61,209.48 462.38,211.17 463.16,212.87 463.93,214.56 464.70,216.26 465.47,217.95 466.24,219.64 467.01,221.33 467.78,223.01 468.56,224.70 469.33,226.38 470.10,228.06 470.87,229.73 471.64,231.40 472.41,233.07 473.19,234.73 473.96,236.39 474.73,238.04 475.50,239.69 476.27,241.33 477.04,242.97 477.81,244.60 478.59,246.23 479.36,247.85 480.13,249.46 480.90,251.06 481.67,252.66 482.44,254.25 483.22,255.84 483.99,257.41 484.76,258.98 485.53,260.54 486.30,262.09 487.07,263.63 487.84,265.16 488.62,266.69 489.39,268.20 490.16,269.71 490.93,271.21 491.70,272.69 492.47,274.17 493.25,275.64 494.02,277.09 494.79,278.54 495.56,279.97 496.33,281.40 497.10,282.81 497.87,284.22 498.65,285.61 499.42,286.99 500.19,288.36 500.96,289.72 501.73,291.07 502.50,292.40 503.28,293.73 504.05,295.04 504.82,296.34 505.59,297.63 506.36,298.91 507.13,300.18 507.90,301.43 508.68,302.67 509.45,303.90 510.22,305.12 510.99,306.32 511.76,307.51 512.53,308.69 513.31,309.86 514.08,311.02 514.85,312.16 515.62,313.29 516.39,314.41 517.16,315.51 517.93,316.61 518.71,317.69 519.48,318.75 520.25,319.81 521.02,320.85 521.79,321.88 522.56,322.90 523.33,323.91 524.11,324.90 524.88,325.88 525.65,326.85 526.42,327.81 527.19,328.75 527.96,329.68 528.74,330.60 529.51,331.51 530.28,332.41 531.05,333.29 531.82,334.16 532.59,335.02 533.36,335.87 534.14,336.70 534.91,337.53 535.68,338.34 536.45,339.14 537.22,339.93 537.99,340.71 538.77,341.47 539.54,342.23 540.31,342.97 541.08,343.70 541.85,344.42 542.62,345.13 543.39,345.83 544.17,346.52 544.94,347.20 545.71,347.86 546.48,348.52 547.25,349.17 548.02,349.80 548.80,350.42 549.57,351.04 550.34,351.64 551.11,352.24 551.88,352.82 552.65,353.40 553.42,353.96 554.20,354.51 554.97,355.06 555.74,355.60 556.51,356.12 557.28,356.64 558.05,357.15 558.83,357.65 559.60,358.14 560.37,358.62 561.14,359.09 561.91,359.55 562.68,360.01 563.45,360.45 564.23,360.89 565.00,361.32 565.77,361.74 566.54,362.16 567.31,362.56 568.08,362.96 568.86,363.35 569.63,363.74 570.40,364.11 571.17,364.48 571.94,364.84 572.71,365.19 573.48,365.54 574.26,365.88 575.03,366.21 575.80,366.54 576.57,366.86 577.34,367.17 578.11,367.47 578.89,367.77 579.66,368.07 580.43,368.35 581.20,368.63 581.97,368.91 582.74,369.18 583.51,369.44 584.29,369.70 585.06,369.95 585.83,370.20 586.60,370.44 587.37,370.67 588.14,370.91 588.92,371.13 589.69,371.35 590.46,371.57 591.23,371.78 592.00,371.98 592.77,372.18 593.54,372.38 594.32,372.57 595.09,372.76 595.86,372.94 596.63,373.12 597.40,373.30 598.17,373.47 598.95,373.63 599.72,373.79 600.49,373.95 601.26,374.11 602.03,374.26 602.80,374.41 603.57,374.55 604.35,374.69 605.12,374.83 605.89,374.96 606.66,375.09 607.43,375.22 608.20,375.34 608.97,375.46 609.75,375.58 610.52,375.69 611.29,375.80 612.06,375.91 612.83,376.02 613.60,376.12 614.38,376.22 615.15,376.32 615.92,376.41 616.69,376.51 617.46,376.60 618.23,376.69 619.00,376.77 619.78,376.85 620.55,376.94 621.32,377.01 622.09,377.09 622.86,377.17 623.63,377.24 624.41,377.31 625.18,377.38 625.95,377.44 626.72,377.51 627.49,377.57 628.26,377.63 629.03,377.69 629.81,377.75 630.58,377.81 631.35,377.86 632.12,377.92 632.89,377.97 633.66,378.02 634.44,378.07 635.21,378.11 635.98,378.16 636.75,378.20 637.52,378.25 638.29,378.29 639.06,378.33 639.84,378.37 640.61,378.41 641.38,378.45 642.15,378.48 642.92,378.52 643.69,378.55 644.47,378.58 645.24,378.62 646.01,378.65 646.78,378.68 647.55,378.71 648.32,378.74 649.09,378.76 649.87,378.79 650.64,378.82 651.41,378.84 652.18,378.86 652.95,378.89 653.72,378.91 654.50,378.93 655.27,378.95 656.04,378.97 656.81,378.99 657.58,379.01 658.35,379.03 659.12,379.05 659.90,379.07 660.67,379.08 661.44,379.10 662.21,379.12 662.98,379.13 663.75,379.15 664.53,379.16 665.30,379.18 666.07,379.19 666.84,379.20 667.61,379.21 668.38,379.23 669.15,379.24 669.93,379.25 670.70,379.26 671.47,379.27 672.24,379.28 673.01,379.29 673.78,379.30 674.56,379.31 675.33,379.32 676.10,379.33 676.87,379.34 677.64,379.34 678.41,379.35 679.18,379.36 679.96,379.37 680.73,379.37 681.50,379.38 682.27,379.39 683.04,379.39 ' style='stroke-width: 2.13; stroke-linecap: butt;' clip-path='url(#cpMzUuNTd8NzE0LjUyfDQwMC41MXw2Mi4zOA==)' />
<line x1='380.85' y1='379.55' x2='380.85' y2='100.51' style='stroke-width: 2.13; stroke: #172F47; stroke-linecap: butt;' clip-path='url(#cpMzUuNTd8NzE0LjUyfDQwMC41MXw2Mi4zOA==)' />
<polygon points='380.95,100.92 381.73,101.15 382.50,101.41 383.27,101.69 384.04,102.00 384.81,102.34 385.58,102.70 386.36,103.09 387.13,103.51 387.90,103.96 388.67,104.43 389.44,104.93 390.21,105.45 390.98,106.01 391.76,106.58 392.53,107.19 393.30,107.82 394.07,108.47 394.84,109.15 395.61,109.86 396.39,110.59 397.16,111.35 397.93,112.13 398.70,112.94 399.47,113.76 400.24,114.62 401.01,115.49 401.79,116.40 402.56,117.32 403.33,118.27 404.10,119.23 404.87,120.23 405.64,121.24 406.42,122.27 407.19,123.33 407.96,124.41 408.73,125.51 409.50,126.63 410.27,127.77 411.04,128.93 411.82,130.11 412.59,131.30 413.36,132.52 414.13,133.76 414.90,135.01 415.67,136.28 416.45,137.57 417.22,138.88 417.99,140.20 418.76,141.54 419.53,142.90 420.30,144.27 421.07,145.66 421.85,147.06 422.62,148.48 423.39,149.91 424.16,151.36 424.93,152.82 425.70,154.29 426.48,155.78 427.25,157.27 428.02,158.78 428.79,160.30 429.56,161.84 430.33,163.38 431.10,164.94 431.88,166.50 432.65,168.07 433.42,169.66 434.19,171.25 434.96,172.85 435.73,174.46 436.51,176.08 437.28,177.70 438.05,179.33 438.82,180.97 439.59,182.62 440.36,184.27 441.13,185.92 441.91,187.58 442.68,189.25 443.45,190.92 444.22,192.59 444.99,194.27 445.76,195.95 446.53,197.64 447.31,199.32 448.08,201.01 448.85,202.70 449.62,204.40 450.39,206.09 451.16,207.78 451.94,209.48 452.71,211.17 453.48,212.87 454.25,214.56 455.02,216.26 455.79,217.95 456.56,219.64 457.34,221.33 458.11,223.01 458.88,224.70 459.65,226.38 460.42,228.06 461.19,229.73 461.97,231.40 462.74,233.07 463.51,234.73 464.28,236.39 465.05,238.04 465.82,239.69 466.59,241.33 467.37,242.97 468.14,244.60 468.91,246.23 469.68,247.85 470.45,249.46 471.22,251.06 472.00,252.66 472.77,254.25 473.54,255.84 474.31,257.41 475.08,258.98 475.85,260.54 476.62,262.09 477.40,263.63 478.17,265.16 478.94,266.69 479.71,268.20 480.48,269.71 481.25,271.21 482.03,272.69 482.80,274.17 483.57,275.64 484.34,277.09 485.11,278.54 485.88,279.97 486.65,281.40 487.43,282.81 488.20,284.22 488.97,285.61 489.74,286.99 490.51,288.36 491.28,289.72 492.06,291.07 492.83,292.40 493.60,293.73 494.37,295.04 495.14,296.34 495.91,297.63 496.68,298.91 497.46,300.18 498.23,301.43 499.00,302.67 499.77,303.90 500.54,305.12 501.31,306.32 502.09,307.51 502.86,308.69 503.63,309.86 504.40,311.02 505.17,312.16 505.94,313.29 506.71,314.41 507.49,315.51 508.26,316.61 509.03,317.69 509.80,318.75 510.57,319.81 511.34,320.85 512.12,321.88 512.89,322.90 513.66,323.91 514.43,324.90 515.20,325.88 515.97,326.85 516.74,327.81 517.52,328.75 518.29,329.68 519.06,330.60 519.83,331.51 520.60,332.41 521.37,333.29 522.15,334.16 522.92,335.02 523.69,335.87 524.46,336.70 525.23,337.53 526.00,338.34 526.77,339.14 527.55,339.93 528.32,340.71 529.09,341.47 529.86,342.23 530.63,342.97 531.40,343.70 532.17,344.42 532.95,345.13 533.72,345.83 534.49,346.52 535.26,347.20 536.03,347.86 536.80,348.52 537.58,349.17 538.35,349.80 539.12,350.42 539.89,351.04 540.66,351.64 541.43,352.24 542.20,352.82 542.98,353.40 543.75,353.96 544.52,354.51 545.29,355.06 546.06,355.60 546.83,356.12 547.61,356.64 548.38,357.15 549.15,357.65 549.92,358.14 550.69,358.62 551.46,359.09 552.23,359.55 553.01,360.01 553.78,360.45 554.55,360.89 555.32,361.32 556.09,361.74 556.86,362.16 557.64,362.56 558.41,362.96 559.18,363.35 559.95,363.74 560.72,364.11 561.49,364.48 562.26,364.84 563.04,365.19 563.81,365.54 564.58,365.88 565.35,366.21 566.12,366.54 566.89,366.86 567.67,367.17 568.44,367.47 569.21,367.77 569.98,368.07 570.75,368.35 571.52,368.63 572.29,368.91 573.07,369.18 573.84,369.44 574.61,369.70 575.38,369.95 576.15,370.20 576.92,370.44 577.70,370.67 578.47,370.91 579.24,371.13 580.01,371.35 580.78,371.57 581.55,371.78 582.32,371.98 583.10,372.18 583.87,372.38 584.64,372.57 585.41,372.76 586.18,372.94 586.95,373.12 587.73,373.30 588.50,373.47 589.27,373.63 590.04,373.79 590.81,373.95 591.58,374.11 592.35,374.26 593.13,374.41 593.90,374.55 594.67,374.69 595.44,374.83 596.21,374.96 596.98,375.09 597.76,375.22 598.53,375.34 599.30,375.46 600.07,375.58 600.84,375.69 601.61,375.80 602.38,375.91 603.16,376.02 603.93,376.12 604.70,376.22 605.47,376.32 606.24,376.41 607.01,376.51 607.79,376.60 608.56,376.69 609.33,376.77 610.10,376.85 610.87,376.94 611.64,377.01 612.41,377.09 613.19,377.17 613.96,377.24 614.73,377.31 615.50,377.38 616.27,377.44 617.04,377.51 617.81,377.57 618.59,377.63 619.36,377.69 620.13,377.75 620.90,377.81 621.67,377.86 622.44,377.92 623.22,377.97 623.99,378.02 624.76,378.07 625.53,378.11 626.30,378.16 627.07,378.20 627.84,378.25 628.62,378.29 629.39,378.33 630.16,378.37 630.93,378.41 631.70,378.45 632.47,378.48 633.25,378.52 634.02,378.55 634.79,378.58 635.56,378.62 636.33,378.65 637.10,378.68 637.87,378.71 638.65,378.74 639.42,378.76 640.19,378.79 640.96,378.82 641.73,378.84 642.50,378.86 643.28,378.89 644.05,378.91 644.82,378.93 645.59,378.95 646.36,378.97 647.13,378.99 647.90,379.01 648.68,379.03 649.45,379.05 650.22,379.07 650.99,379.08 651.76,379.10 652.53,379.12 653.31,379.13 654.08,379.15 654.85,379.16 655.62,379.18 656.39,379.19 657.16,379.20 657.93,379.21 658.71,379.23 659.48,379.24 660.25,379.25 661.02,379.26 661.79,379.27 662.56,379.28 663.34,379.29 664.11,379.30 664.88,379.31 665.65,379.32 666.42,379.33 667.19,379.34 667.96,379.34 668.74,379.35 669.51,379.36 670.28,379.37 671.05,379.37 671.82,379.38 672.59,379.39 673.37,379.39 674.14,379.40 674.91,379.40 675.68,379.41 676.45,379.42 677.22,379.42 677.99,379.43 678.77,379.43 679.54,379.44 680.31,379.44 681.08,379.44 681.85,379.45 682.62,379.45 683.40,379.46 683.40,379.55 682.62,379.55 681.85,379.55 681.08,379.55 680.31,379.55 679.54,379.55 678.77,379.55 677.99,379.55 677.22,379.55 676.45,379.55 675.68,379.55 674.91,379.55 674.14,379.55 673.37,379.55 672.59,379.55 671.82,379.55 671.05,379.55 670.28,379.55 669.51,379.55 668.74,379.55 667.96,379.55 667.19,379.55 666.42,379.55 665.65,379.55 664.88,379.55 664.11,379.55 663.34,379.55 662.56,379.55 661.79,379.55 661.02,379.55 660.25,379.55 659.48,379.55 658.71,379.55 657.93,379.55 657.16,379.55 656.39,379.55 655.62,379.55 654.85,379.55 654.08,379.55 653.31,379.55 652.53,379.55 651.76,379.55 650.99,379.55 650.22,379.55 649.45,379.55 648.68,379.55 647.90,379.55 647.13,379.55 646.36,379.55 645.59,379.55 644.82,379.55 644.05,379.55 643.28,379.55 642.50,379.55 641.73,379.55 640.96,379.55 640.19,379.55 639.42,379.55 638.65,379.55 637.87,379.55 637.10,379.55 636.33,379.55 635.56,379.55 634.79,379.55 634.02,379.55 633.25,379.55 632.47,379.55 631.70,379.55 630.93,379.55 630.16,379.55 629.39,379.55 628.62,379.55 627.84,379.55 627.07,379.55 626.30,379.55 625.53,379.55 624.76,379.55 623.99,379.55 623.22,379.55 622.44,379.55 621.67,379.55 620.90,379.55 620.13,379.55 619.36,379.55 618.59,379.55 617.81,379.55 617.04,379.55 616.27,379.55 615.50,379.55 614.73,379.55 613.96,379.55 613.19,379.55 612.41,379.55 611.64,379.55 610.87,379.55 610.10,379.55 609.33,379.55 608.56,379.55 607.79,379.55 607.01,379.55 606.24,379.55 605.47,379.55 604.70,379.55 603.93,379.55 603.16,379.55 602.38,379.55 601.61,379.55 600.84,379.55 600.07,379.55 599.30,379.55 598.53,379.55 597.76,379.55 596.98,379.55 596.21,379.55 595.44,379.55 594.67,379.55 593.90,379.55 593.13,379.55 592.35,379.55 591.58,379.55 590.81,379.55 590.04,379.55 589.27,379.55 588.50,379.55 587.73,379.55 586.95,379.55 586.18,379.55 585.41,379.55 584.64,379.55 583.87,379.55 583.10,379.55 582.32,379.55 581.55,379.55 580.78,379.55 580.01,379.55 579.24,379.55 578.47,379.55 577.70,379.55 576.92,379.55 576.15,379.55 575.38,379.55 574.61,379.55 573.84,379.55 573.07,379.55 572.29,379.55 571.52,379.55 570.75,379.55 569.98,379.55 569.21,379.55 568.44,379.55 567.67,379.55 566.89,379.55 566.12,379.55 565.35,379.55 564.58,379.55 563.81,379.55 563.04,379.55 562.26,379.55 561.49,379.55 560.72,379.55 559.95,379.55 559.18,379.55 558.41,379.55 557.64,379.55 556.86,379.55 556.09,379.55 555.32,379.55 554.55,379.55 553.78,379.55 553.01,379.55 552.23,379.55 551.46,379.55 550.69,379.55 549.92,379.55 549.15,379.55 548.38,379.55 547.61,379.55 546.83,379.55 546.06,379.55 545.29,379.55 544.52,379.55 543.75,379.55 542.98,379.55 542.20,379.55 541.43,379.55 540.66,379.55 539.89,379.55 539.12,379.55 538.35,379.55 537.58,379.55 536.80,379.55 536.03,379.55 535.26,379.55 534.49,379.55 533.72,379.55 532.95,379.55 532.17,379.55 531.40,379.55 530.63,379.55 529.86,379.55 529.09,379.55 528.32,379.55 527.55,379.55 526.77,379.55 526.00,379.55 525.23,379.55 524.46,379.55 523.69,379.55 522.92,379.55 522.15,379.55 521.37,379.55 520.60,379.55 519.83,379.55 519.06,379.55 518.29,379.55 517.52,379.55 516.74,379.55 515.97,379.55 515.20,379.55 514.43,379.55 513.66,379.55 512.89,379.55 512.12,379.55 511.34,379.55 510.57,379.55 509.80,379.55 509.03,379.55 508.26,379.55 507.49,379.55 506.71,379.55 505.94,379.55 505.17,379.55 504.40,379.55 503.63,379.55 502.86,379.55 502.09,379.55 501.31,379.55 500.54,379.55 499.77,379.55 499.00,379.55 498.23,379.55 497.46,379.55 496.68,379.55 495.91,379.55 495.14,379.55 494.37,379.55 493.60,379.55 492.83,379.55 492.06,379.55 491.28,379.55 490.51,379.55 489.74,379.55 488.97,379.55 488.20,379.55 487.43,379.55 486.65,379.55 485.88,379.55 485.11,379.55 484.34,379.55 483.57,379.55 482.80,379.55 482.03,379.55 481.25,379.55 480.48,379.55 479.71,379.55 478.94,379.55 478.17,379.55 477.40,379.55 476.62,379.55 475.85,379.55 475.08,379.55 474.31,379.55 473.54,379.55 472.77,379.55 472.00,379.55 471.22,379.55 470.45,379.55 469.68,379.55 468.91,379.55 468.14,379.55 467.37,379.55 466.59,379.55 465.82,379.55 465.05,379.55 464.28,379.55 463.51,379.55 462.74,379.55 461.97,379.55 461.19,379.55 460.42,379.55 459.65,379.55 458.88,379.55 458.11,379.55 457.34,379.55 456.56,379.55 455.79,379.55 455.02,379.55 454.25,379.55 453.48,379.55 452.71,379.55 451.94,379.55 451.16,379.55 450.39,379.55 449.62,379.55 448.85,379.55 448.08,379.55 447.31,379.55 446.53,379.55 445.76,379.55 444.99,379.55 444.22,379.55 443.45,379.55 442.68,379.55 441.91,379.55 441.13,379.55 440.36,379.55 439.59,379.55 438.82,379.55 438.05,379.55 437.28,379.55 436.51,379.55 435.73,379.55 434.96,379.55 434.19,379.55 433.42,379.55 432.65,379.55 431.88,379.55 431.10,379.55 430.33,379.55 429.56,379.55 428.79,379.55 428.02,379.55 427.25,379.55 426.48,379.55 425.70,379.55 424.93,379.55 424.16,379.55 423.39,379.55 422.62,379.55 421.85,379.55 421.07,379.55 420.30,379.55 419.53,379.55 418.76,379.55 417.99,379.55 417.22,379.55 416.45,379.55 415.67,379.55 414.90,379.55 414.13,379.55 413.36,379.55 412.59,379.55 411.82,379.55 411.04,379.55 410.27,379.55 409.50,379.55 408.73,379.55 407.96,379.55 407.19,379.55 406.42,379.55 405.64,379.55 404.87,379.55 404.10,379.55 403.33,379.55 402.56,379.55 401.79,379.55 401.01,379.55 400.24,379.55 399.47,379.55 398.70,379.55 397.93,379.55 397.16,379.55 396.39,379.55 395.61,379.55 394.84,379.55 394.07,379.55 393.30,379.55 392.53,379.55 391.76,379.55 390.98,379.55 390.21,379.55 389.44,379.55 388.67,379.55 387.90,379.55 387.13,379.55 386.36,379.55 385.58,379.55 384.81,379.55 384.04,379.55 383.27,379.55 382.50,379.55 381.73,379.55 380.95,379.55 ' style='stroke-width: 0.00; stroke: none; fill: #EBF2F8; fill-opacity: 0.66;' clip-path='url(#cpMzUuNTd8NzE0LjUyfDQwMC41MXw2Mi4zOA==)' />
<polyline points='380.95,100.92 381.73,101.15 382.50,101.41 383.27,101.69 384.04,102.00 384.81,102.34 385.58,102.70 386.36,103.09 387.13,103.51 387.90,103.96 388.67,104.43 389.44,104.93 390.21,105.45 390.98,106.01 391.76,106.58 392.53,107.19 393.30,107.82 394.07,108.47 394.84,109.15 395.61,109.86 396.39,110.59 397.16,111.35 397.93,112.13 398.70,112.94 399.47,113.76 400.24,114.62 401.01,115.49 401.79,116.40 402.56,117.32 403.33,118.27 404.10,119.23 404.87,120.23 405.64,121.24 406.42,122.27 407.19,123.33 407.96,124.41 408.73,125.51 409.50,126.63 410.27,127.77 411.04,128.93 411.82,130.11 412.59,131.30 413.36,132.52 414.13,133.76 414.90,135.01 415.67,136.28 416.45,137.57 417.22,138.88 417.99,140.20 418.76,141.54 419.53,142.90 420.30,144.27 421.07,145.66 421.85,147.06 422.62,148.48 423.39,149.91 424.16,151.36 424.93,152.82 425.70,154.29 426.48,155.78 427.25,157.27 428.02,158.78 428.79,160.30 429.56,161.84 430.33,163.38 431.10,164.94 431.88,166.50 432.65,168.07 433.42,169.66 434.19,171.25 434.96,172.85 435.73,174.46 436.51,176.08 437.28,177.70 438.05,179.33 438.82,180.97 439.59,182.62 440.36,184.27 441.13,185.92 441.91,187.58 442.68,189.25 443.45,190.92 444.22,192.59 444.99,194.27 445.76,195.95 446.53,197.64 447.31,199.32 448.08,201.01 448.85,202.70 449.62,204.40 450.39,206.09 451.16,207.78 451.94,209.48 452.71,211.17 453.48,212.87 454.25,214.56 455.02,216.26 455.79,217.95 456.56,219.64 457.34,221.33 458.11,223.01 458.88,224.70 459.65,226.38 460.42,228.06 461.19,229.73 461.97,231.40 462.74,233.07 463.51,234.73 464.28,236.39 465.05,238.04 465.82,239.69 466.59,241.33 467.37,242.97 468.14,244.60 468.91,246.23 469.68,247.85 470.45,249.46 471.22,251.06 472.00,252.66 472.77,254.25 473.54,255.84 474.31,257.41 475.08,258.98 475.85,260.54 476.62,262.09 477.40,263.63 478.17,265.16 478.94,266.69 479.71,268.20 480.48,269.71 481.25,271.21 482.03,272.69 482.80,274.17 483.57,275.64 484.34,277.09 485.11,278.54 485.88,279.97 486.65,281.40 487.43,282.81 488.20,284.22 488.97,285.61 489.74,286.99 490.51,288.36 491.28,289.72 492.06,291.07 492.83,292.40 493.60,293.73 494.37,295.04 495.14,296.34 495.91,297.63 496.68,298.91 497.46,300.18 498.23,301.43 499.00,302.67 499.77,303.90 500.54,305.12 501.31,306.32 502.09,307.51 502.86,308.69 503.63,309.86 504.40,311.02 505.17,312.16 505.94,313.29 506.71,314.41 507.49,315.51 508.26,316.61 509.03,317.69 509.80,318.75 510.57,319.81 511.34,320.85 512.12,321.88 512.89,322.90 513.66,323.91 514.43,324.90 515.20,325.88 515.97,326.85 516.74,327.81 517.52,328.75 518.29,329.68 519.06,330.60 519.83,331.51 520.60,332.41 521.37,333.29 522.15,334.16 522.92,335.02 523.69,335.87 524.46,336.70 525.23,337.53 526.00,338.34 526.77,339.14 527.55,339.93 528.32,340.71 529.09,341.47 529.86,342.23 530.63,342.97 531.40,343.70 532.17,344.42 532.95,345.13 533.72,345.83 534.49,346.52 535.26,347.20 536.03,347.86 536.80,348.52 537.58,349.17 538.35,349.80 539.12,350.42 539.89,351.04 540.66,351.64 541.43,352.24 542.20,352.82 542.98,353.40 543.75,353.96 544.52,354.51 545.29,355.06 546.06,355.60 546.83,356.12 547.61,356.64 548.38,357.15 549.15,357.65 549.92,358.14 550.69,358.62 551.46,359.09 552.23,359.55 553.01,360.01 553.78,360.45 554.55,360.89 555.32,361.32 556.09,361.74 556.86,362.16 557.64,362.56 558.41,362.96 559.18,363.35 559.95,363.74 560.72,364.11 561.49,364.48 562.26,364.84 563.04,365.19 563.81,365.54 564.58,365.88 565.35,366.21 566.12,366.54 566.89,366.86 567.67,367.17 568.44,367.47 569.21,367.77 569.98,368.07 570.75,368.35 571.52,368.63 572.29,368.91 573.07,369.18 573.84,369.44 574.61,369.70 575.38,369.95 576.15,370.20 576.92,370.44 577.70,370.67 578.47,370.91 579.24,371.13 580.01,371.35 580.78,371.57 581.55,371.78 582.32,371.98 583.10,372.18 583.87,372.38 584.64,372.57 585.41,372.76 586.18,372.94 586.95,373.12 587.73,373.30 588.50,373.47 589.27,373.63 590.04,373.79 590.81,373.95 591.58,374.11 592.35,374.26 593.13,374.41 593.90,374.55 594.67,374.69 595.44,374.83 596.21,374.96 596.98,375.09 597.76,375.22 598.53,375.34 599.30,375.46 600.07,375.58 600.84,375.69 601.61,375.80 602.38,375.91 603.16,376.02 603.93,376.12 604.70,376.22 605.47,376.32 606.24,376.41 607.01,376.51 607.79,376.60 608.56,376.69 609.33,376.77 610.10,376.85 610.87,376.94 611.64,377.01 612.41,377.09 613.19,377.17 613.96,377.24 614.73,377.31 615.50,377.38 616.27,377.44 617.04,377.51 617.81,377.57 618.59,377.63 619.36,377.69 620.13,377.75 620.90,377.81 621.67,377.86 622.44,377.92 623.22,377.97 623.99,378.02 624.76,378.07 625.53,378.11 626.30,378.16 627.07,378.20 627.84,378.25 628.62,378.29 629.39,378.33 630.16,378.37 630.93,378.41 631.70,378.45 632.47,378.48 633.25,378.52 634.02,378.55 634.79,378.58 635.56,378.62 636.33,378.65 637.10,378.68 637.87,378.71 638.65,378.74 639.42,378.76 640.19,378.79 640.96,378.82 641.73,378.84 642.50,378.86 643.28,378.89 644.05,378.91 644.82,378.93 645.59,378.95 646.36,378.97 647.13,378.99 647.90,379.01 648.68,379.03 649.45,379.05 650.22,379.07 650.99,379.08 651.76,379.10 652.53,379.12 653.31,379.13 654.08,379.15 654.85,379.16 655.62,379.18 656.39,379.19 657.16,379.20 657.93,379.21 658.71,379.23 659.48,379.24 660.25,379.25 661.02,379.26 661.79,379.27 662.56,379.28 663.34,379.29 664.11,379.30 664.88,379.31 665.65,379.32 666.42,379.33 667.19,379.34 667.96,379.34 668.74,379.35 669.51,379.36 670.28,379.37 671.05,379.37 671.82,379.38 672.59,379.39 673.37,379.39 674.14,379.40 674.91,379.40 675.68,379.41 676.45,379.42 677.22,379.42 677.99,379.43 678.77,379.43 679.54,379.44 680.31,379.44 681.08,379.44 681.85,379.45 682.62,379.45 683.40,379.46 ' style='stroke-width: 1.07; stroke: none;' clip-path='url(#cpMzUuNTd8NzE0LjUyfDQwMC41MXw2Mi4zOA==)' />
<polyline points='683.40,379.55 682.62,379.55 681.85,379.55 681.08,379.55 680.31,379.55 679.54,379.55 678.77,379.55 677.99,379.55 677.22,379.55 676.45,379.55 675.68,379.55 674.91,379.55 674.14,379.55 673.37,379.55 672.59,379.55 671.82,379.55 671.05,379.55 670.28,379.55 669.51,379.55 668.74,379.55 667.96,379.55 667.19,379.55 666.42,379.55 665.65,379.55 664.88,379.55 664.11,379.55 663.34,379.55 662.56,379.55 661.79,379.55 661.02,379.55 660.25,379.55 659.48,379.55 658.71,379.55 657.93,379.55 657.16,379.55 656.39,379.55 655.62,379.55 654.85,379.55 654.08,379.55 653.31,379.55 652.53,379.55 651.76,379.55 650.99,379.55 650.22,379.55 649.45,379.55 648.68,379.55 647.90,379.55 647.13,379.55 646.36,379.55 645.59,379.55 644.82,379.55 644.05,379.55 643.28,379.55 642.50,379.55 641.73,379.55 640.96,379.55 640.19,379.55 639.42,379.55 638.65,379.55 637.87,379.55 637.10,379.55 636.33,379.55 635.56,379.55 634.79,379.55 634.02,379.55 633.25,379.55 632.47,379.55 631.70,379.55 630.93,379.55 630.16,379.55 629.39,379.55 628.62,379.55 627.84,379.55 627.07,379.55 626.30,379.55 625.53,379.55 624.76,379.55 623.99,379.55 623.22,379.55 622.44,379.55 621.67,379.55 620.90,379.55 620.13,379.55 619.36,379.55 618.59,379.55 617.81,379.55 617.04,379.55 616.27,379.55 615.50,379.55 614.73,379.55 613.96,379.55 613.19,379.55 612.41,379.55 611.64,379.55 610.87,379.55 610.10,379.55 609.33,379.55 608.56,379.55 607.79,379.55 607.01,379.55 606.24,379.55 605.47,379.55 604.70,379.55 603.93,379.55 603.16,379.55 602.38,379.55 601.61,379.55 600.84,379.55 600.07,379.55 599.30,379.55 598.53,379.55 597.76,379.55 596.98,379.55 596.21,379.55 595.44,379.55 594.67,379.55 593.90,379.55 593.13,379.55 592.35,379.55 591.58,379.55 590.81,379.55 590.04,379.55 589.27,379.55 588.50,379.55 587.73,379.55 586.95,379.55 586.18,379.55 585.41,379.55 584.64,379.55 583.87,379.55 583.10,379.55 582.32,379.55 581.55,379.55 580.78,379.55 580.01,379.55 579.24,379.55 578.47,379.55 577.70,379.55 576.92,379.55 576.15,379.55 575.38,379.55 574.61,379.55 573.84,379.55 573.07,379.55 572.29,379.55 571.52,379.55 570.75,379.55 569.98,379.55 569.21,379.55 568.44,379.55 567.67,379.55 566.89,379.55 566.12,379.55 565.35,379.55 564.58,379.55 563.81,379.55 563.04,379.55 562.26,379.55 561.49,379.55 560.72,379.55 559.95,379.55 559.18,379.55 558.41,379.55 557.64,379.55 556.86,379.55 556.09,379.55 555.32,379.55 554.55,379.55 553.78,379.55 553.01,379.55 552.23,379.55 551.46,379.55 550.69,379.55 549.92,379.55 549.15,379.55 548.38,379.55 547.61,379.55 546.83,379.55 546.06,379.55 545.29,379.55 544.52,379.55 543.75,379.55 542.98,379.55 542.20,379.55 541.43,379.55 540.66,379.55 539.89,379.55 539.12,379.55 538.35,379.55 537.58,379.55 536.80,379.55 536.03,379.55 535.26,379.55 534.49,379.55 533.72,379.55 532.95,379.55 532.17,379.55 531.40,379.55 530.63,379.55 529.86,379.55 529.09,379.55 528.32,379.55 527.55,379.55 526.77,379.55 526.00,379.55 525.23,379.55 524.46,379.55 523.69,379.55 522.92,379.55 522.15,379.55 521.37,379.55 520.60,379.55 519.83,379.55 519.06,379.55 518.29,379.55 517.52,379.55 516.74,379.55 515.97,379.55 515.20,379.55 514.43,379.55 513.66,379.55 512.89,379.55 512.12,379.55 511.34,379.55 510.57,379.55 509.80,379.55 509.03,379.55 508.26,379.55 507.49,379.55 506.71,379.55 505.94,379.55 505.17,379.55 504.40,379.55 503.63,379.55 502.86,379.55 502.09,379.55 501.31,379.55 500.54,379.55 499.77,379.55 499.00,379.55 498.23,379.55 497.46,379.55 496.68,379.55 495.91,379.55 495.14,379.55 494.37,379.55 493.60,379.55 492.83,379.55 492.06,379.55 491.28,379.55 490.51,379.55 489.74,379.55 488.97,379.55 488.20,379.55 487.43,379.55 486.65,379.55 485.88,379.55 485.11,379.55 484.34,379.55 483.57,379.55 482.80,379.55 482.03,379.55 481.25,379.55 480.48,379.55 479.71,379.55 478.94,379.55 478.17,379.55 477.40,379.55 476.62,379.55 475.85,379.55 475.08,379.55 474.31,379.55 473.54,379.55 472.77,379.55 472.00,379.55 471.22,379.55 470.45,379.55 469.68,379.55 468.91,379.55 468.14,379.55 467.37,379.55 466.59,379.55 465.82,379.55 465.05,379.55 464.28,379.55 463.51,379.55 462.74,379.55 461.97,379.55 461.19,379.55 460.42,379.55 459.65,379.55 458.88,379.55 458.11,379.55 457.34,379.55 456.56,379.55 455.79,379.55 455.02,379.55 454.25,379.55 453.48,379.55 452.71,379.55 451.94,379.55 451.16,379.55 450.39,379.55 449.62,379.55 448.85,379.55 448.08,379.55 447.31,379.55 446.53,379.55 445.76,379.55 444.99,379.55 444.22,379.55 443.45,379.55 442.68,379.55 441.91,379.55 441.13,379.55 440.36,379.55 439.59,379.55 438.82,379.55 438.05,379.55 437.28,379.55 436.51,379.55 435.73,379.55 434.96,379.55 434.19,379.55 433.42,379.55 432.65,379.55 431.88,379.55 431.10,379.55 430.33,379.55 429.56,379.55 428.79,379.55 428.02,379.55 427.25,379.55 426.48,379.55 425.70,379.55 424.93,379.55 424.16,379.55 423.39,379.55 422.62,379.55 421.85,379.55 421.07,379.55 420.30,379.55 419.53,379.55 418.76,379.55 417.99,379.55 417.22,379.55 416.45,379.55 415.67,379.55 414.90,379.55 414.13,379.55 413.36,379.55 412.59,379.55 411.82,379.55 411.04,379.55 410.27,379.55 409.50,379.55 408.73,379.55 407.96,379.55 407.19,379.55 406.42,379.55 405.64,379.55 404.87,379.55 404.10,379.55 403.33,379.55 402.56,379.55 401.79,379.55 401.01,379.55 400.24,379.55 399.47,379.55 398.70,379.55 397.93,379.55 397.16,379.55 396.39,379.55 395.61,379.55 394.84,379.55 394.07,379.55 393.30,379.55 392.53,379.55 391.76,379.55 390.98,379.55 390.21,379.55 389.44,379.55 388.67,379.55 387.90,379.55 387.13,379.55 386.36,379.55 385.58,379.55 384.81,379.55 384.04,379.55 383.27,379.55 382.50,379.55 381.73,379.55 380.95,379.55 ' style='stroke-width: 1.07; stroke: none;' clip-path='url(#cpMzUuNTd8NzE0LjUyfDQwMC41MXw2Mi4zOA==)' />
<polyline points='66.94,379.45 67.71,379.45 68.48,379.45 69.26,379.44 70.03,379.44 70.80,379.43 71.57,379.43 72.34,379.42 73.11,379.42 73.89,379.41 74.66,379.41 75.43,379.40 76.20,379.40 76.97,379.39 77.74,379.38 78.51,379.38 79.29,379.37 80.06,379.36 80.83,379.36 81.60,379.35 82.37,379.34 83.14,379.33 83.92,379.32 84.69,379.32 85.46,379.31 86.23,379.30 87.00,379.29 87.77,379.28 88.54,379.27 89.32,379.26 90.09,379.25 90.86,379.23 91.63,379.22 92.40,379.21 93.17,379.20 93.95,379.18 94.72,379.17 95.49,379.16 96.26,379.14 97.03,379.13 97.80,379.11 98.57,379.10 99.35,379.08 100.12,379.06 100.89,379.04 101.66,379.03 102.43,379.01 103.20,378.99 103.97,378.97 104.75,378.95 105.52,378.93 106.29,378.90 107.06,378.88 107.83,378.86 108.60,378.83 109.38,378.81 110.15,378.78 110.92,378.75 111.69,378.73 112.46,378.70 113.23,378.67 114.00,378.64 114.78,378.61 115.55,378.57 116.32,378.54 117.09,378.51 117.86,378.47 118.63,378.43 119.41,378.40 120.18,378.36 120.95,378.32 121.72,378.28 122.49,378.23 123.26,378.19 124.03,378.15 124.81,378.10 125.58,378.05 126.35,378.00 127.12,377.95 127.89,377.90 128.66,377.85 129.44,377.79 130.21,377.73 130.98,377.67 131.75,377.61 132.52,377.55 133.29,377.49 134.06,377.42 134.84,377.36 135.61,377.29 136.38,377.22 137.15,377.14 137.92,377.07 138.69,376.99 139.47,376.91 140.24,376.83 141.01,376.74 141.78,376.66 142.55,376.57 143.32,376.48 144.09,376.38 144.87,376.29 145.64,376.19 146.41,376.09 147.18,375.98 147.95,375.88 148.72,375.77 149.50,375.66 150.27,375.54 151.04,375.42 151.81,375.30 152.58,375.18 153.35,375.05 154.12,374.92 154.90,374.78 155.67,374.65 156.44,374.50 157.21,374.36 157.98,374.21 158.75,374.06 159.53,373.90 160.30,373.74 161.07,373.58 161.84,373.41 162.61,373.24 163.38,373.07 164.15,372.89 164.93,372.70 165.70,372.51 166.47,372.32 167.24,372.12 168.01,371.92 168.78,371.71 169.56,371.50 170.33,371.28 171.10,371.06 171.87,370.83 172.64,370.60 173.41,370.36 174.18,370.12 174.96,369.87 175.73,369.62 176.50,369.36 177.27,369.09 178.04,368.82 178.81,368.55 179.59,368.26 180.36,367.97 181.13,367.68 181.90,367.38 182.67,367.07 183.44,366.76 184.21,366.43 184.99,366.11 185.76,365.77 186.53,365.43 187.30,365.08 188.07,364.73 188.84,364.36 189.61,363.99 190.39,363.62 191.16,363.23 191.93,362.84 192.70,362.44 193.47,362.03 194.24,361.61 195.02,361.19 195.79,360.75 196.56,360.31 197.33,359.86 198.10,359.41 198.87,358.94 199.64,358.47 200.42,357.98 201.19,357.49 201.96,356.99 202.73,356.48 203.50,355.96 204.27,355.43 205.05,354.89 205.82,354.34 206.59,353.78 207.36,353.22 208.13,352.64 208.90,352.05 209.67,351.45 210.45,350.85 211.22,350.23 211.99,349.60 212.76,348.96 213.53,348.31 214.30,347.66 215.08,346.99 215.85,346.30 216.62,345.61 217.39,344.91 218.16,344.20 218.93,343.47 219.70,342.74 220.48,341.99 221.25,341.23 222.02,340.46 222.79,339.68 223.56,338.89 224.33,338.09 225.11,337.27 225.88,336.44 226.65,335.60 227.42,334.75 228.19,333.89 228.96,333.01 229.73,332.13 230.51,331.23 231.28,330.31 232.05,329.39 232.82,328.46 233.59,327.51 234.36,326.55 235.14,325.57 235.91,324.59 236.68,323.59 237.45,322.58 238.22,321.56 238.99,320.53 239.76,319.48 240.54,318.42 241.31,317.35 242.08,316.26 242.85,315.17 243.62,314.06 244.39,312.93 245.17,311.80 245.94,310.65 246.71,309.49 247.48,308.32 248.25,307.14 249.02,305.94 249.79,304.73 250.57,303.51 251.34,302.28 252.11,301.03 252.88,299.78 253.65,298.51 254.42,297.23 255.20,295.93 255.97,294.63 256.74,293.31 257.51,291.99 258.28,290.65 259.05,289.29 259.82,287.93 260.60,286.56 261.37,285.17 262.14,283.78 262.91,282.37 263.68,280.95 264.45,279.52 265.23,278.08 266.00,276.63 266.77,275.17 267.54,273.70 268.31,272.22 269.08,270.74 269.85,269.24 270.63,267.73 271.40,266.21 272.17,264.68 272.94,263.15 273.71,261.60 274.48,260.05 275.25,258.49 276.03,256.92 276.80,255.34 277.57,253.75 278.34,252.16 279.11,250.56 279.88,248.95 280.66,247.34 281.43,245.72 282.20,244.09 282.97,242.46 283.74,240.82 284.51,239.17 285.28,237.52 286.06,235.87 286.83,234.21 287.60,232.54 288.37,230.88 289.14,229.20 289.91,227.53 290.69,225.85 291.46,224.17 292.23,222.48 293.00,220.80 293.77,219.11 294.54,217.41 295.31,215.72 296.09,214.03 296.86,212.33 297.63,210.64 298.40,208.94 299.17,207.25 299.94,205.56 300.72,203.86 301.49,202.17 302.26,200.48 303.03,198.79 303.80,197.11 304.57,195.42 305.34,193.74 306.12,192.07 306.89,190.39 307.66,188.72 308.43,187.06 309.20,185.40 309.97,183.75 310.75,182.10 311.52,180.45 312.29,178.82 313.06,177.19 313.83,175.57 314.60,173.95 315.37,172.35 316.15,170.75 316.92,169.16 317.69,167.58 318.46,166.01 319.23,164.44 320.00,162.89 320.78,161.35 321.55,159.82 322.32,158.31 323.09,156.80 323.86,155.31 324.63,153.83 325.40,152.36 326.18,150.90 326.95,149.46 327.72,148.03 328.49,146.62 329.26,145.22 330.03,143.84 330.81,142.47 331.58,141.12 332.35,139.78 333.12,138.47 333.89,137.16 334.66,135.88 335.43,134.61 336.21,133.37 336.98,132.14 337.75,130.92 338.52,129.73 339.29,128.56 340.06,127.41 340.84,126.27 341.61,125.16 342.38,124.07 343.15,123.00 343.92,121.95 344.69,120.92 345.46,119.91 346.24,118.93 347.01,117.96 347.78,117.03 348.55,116.11 349.32,115.22 350.09,114.35 350.87,113.50 351.64,112.68 352.41,111.88 353.18,111.11 353.95,110.36 354.72,109.64 355.49,108.94 356.27,108.26 357.04,107.62 357.81,106.99 358.58,106.40 359.35,105.83 360.12,105.29 360.89,104.77 361.67,104.28 362.44,103.81 363.21,103.38 363.98,102.97 364.75,102.58 365.52,102.23 366.30,101.90 367.07,101.60 367.84,101.32 368.61,101.08 369.38,100.86 370.15,100.67 370.92,100.51 371.70,100.37 372.47,100.26 373.24,100.18 374.01,100.13 374.78,100.11 375.55,100.11 376.33,100.14 377.10,100.21 377.87,100.29 378.64,100.41 379.41,100.55 380.18,100.73 380.95,100.92 381.73,101.15 382.50,101.41 383.27,101.69 384.04,102.00 384.81,102.34 385.58,102.70 386.36,103.09 387.13,103.51 387.90,103.96 388.67,104.43 389.44,104.93 390.21,105.45 390.98,106.01 391.76,106.58 392.53,107.19 393.30,107.82 394.07,108.47 394.84,109.15 395.61,109.86 396.39,110.59 397.16,111.35 397.93,112.13 398.70,112.94 399.47,113.76 400.24,114.62 401.01,115.49 401.79,116.40 402.56,117.32 403.33,118.27 404.10,119.23 404.87,120.23 405.64,121.24 406.42,122.27 407.19,123.33 407.96,124.41 408.73,125.51 409.50,126.63 410.27,127.77 411.04,128.93 411.82,130.11 412.59,131.30 413.36,132.52 414.13,133.76 414.90,135.01 415.67,136.28 416.45,137.57 417.22,138.88 417.99,140.20 418.76,141.54 419.53,142.90 420.30,144.27 421.07,145.66 421.85,147.06 422.62,148.48 423.39,149.91 424.16,151.36 424.93,152.82 425.70,154.29 426.48,155.78 427.25,157.27 428.02,158.78 428.79,160.30 429.56,161.84 430.33,163.38 431.10,164.94 431.88,166.50 432.65,168.07 433.42,169.66 434.19,171.25 434.96,172.85 435.73,174.46 436.51,176.08 437.28,177.70 438.05,179.33 438.82,180.97 439.59,182.62 440.36,184.27 441.13,185.92 441.91,187.58 442.68,189.25 443.45,190.92 444.22,192.59 444.99,194.27 445.76,195.95 446.53,197.64 447.31,199.32 448.08,201.01 448.85,202.70 449.62,204.40 450.39,206.09 451.16,207.78 451.94,209.48 452.71,211.17 453.48,212.87 454.25,214.56 455.02,216.26 455.79,217.95 456.56,219.64 457.34,221.33 458.11,223.01 458.88,224.70 459.65,226.38 460.42,228.06 461.19,229.73 461.97,231.40 462.74,233.07 463.51,234.73 464.28,236.39 465.05,238.04 465.82,239.69 466.59,241.33 467.37,242.97 468.14,244.60 468.91,246.23 469.68,247.85 470.45,249.46 471.22,251.06 472.00,252.66 472.77,254.25 473.54,255.84 474.31,257.41 475.08,258.98 475.85,260.54 476.62,262.09 477.40,263.63 478.17,265.16 478.94,266.69 479.71,268.20 480.48,269.71 481.25,271.21 482.03,272.69 482.80,274.17 483.57,275.64 484.34,277.09 485.11,278.54 485.88,279.97 486.65,281.40 487.43,282.81 488.20,284.22 488.97,285.61 489.74,286.99 490.51,288.36 491.28,289.72 492.06,291.07 492.83,292.40 493.60,293.73 494.37,295.04 495.14,296.34 495.91,297.63 496.68,298.91 497.46,300.18 498.23,301.43 499.00,302.67 499.77,303.90 500.54,305.12 501.31,306.32 502.09,307.51 502.86,308.69 503.63,309.86 504.40,311.02 505.17,312.16 505.94,313.29 506.71,314.41 507.49,315.51 508.26,316.61 509.03,317.69 509.80,318.75 510.57,319.81 511.34,320.85 512.12,321.88 512.89,322.90 513.66,323.91 514.43,324.90 515.20,325.88 515.97,326.85 516.74,327.81 517.52,328.75 518.29,329.68 519.06,330.60 519.83,331.51 520.60,332.41 521.37,333.29 522.15,334.16 522.92,335.02 523.69,335.87 524.46,336.70 525.23,337.53 526.00,338.34 526.77,339.14 527.55,339.93 528.32,340.71 529.09,341.47 529.86,342.23 530.63,342.97 531.40,343.70 532.17,344.42 532.95,345.13 533.72,345.83 534.49,346.52 535.26,347.20 536.03,347.86 536.80,348.52 537.58,349.17 538.35,349.80 539.12,350.42 539.89,351.04 540.66,351.64 541.43,352.24 542.20,352.82 542.98,353.40 543.75,353.96 544.52,354.51 545.29,355.06 546.06,355.60 546.83,356.12 547.61,356.64 548.38,357.15 549.15,357.65 549.92,358.14 550.69,358.62 551.46,359.09 552.23,359.55 553.01,360.01 553.78,360.45 554.55,360.89 555.32,361.32 556.09,361.74 556.86,362.16 557.64,362.56 558.41,362.96 559.18,363.35 559.95,363.74 560.72,364.11 561.49,364.48 562.26,364.84 563.04,365.19 563.81,365.54 564.58,365.88 565.35,366.21 566.12,366.54 566.89,366.86 567.67,367.17 568.44,367.47 569.21,367.77 569.98,368.07 570.75,368.35 571.52,368.63 572.29,368.91 573.07,369.18 573.84,369.44 574.61,369.70 575.38,369.95 576.15,370.20 576.92,370.44 577.70,370.67 578.47,370.91 579.24,371.13 580.01,371.35 580.78,371.57 581.55,371.78 582.32,371.98 583.10,372.18 583.87,372.38 584.64,372.57 585.41,372.76 586.18,372.94 586.95,373.12 587.73,373.30 588.50,373.47 589.27,373.63 590.04,373.79 590.81,373.95 591.58,374.11 592.35,374.26 593.13,374.41 593.90,374.55 594.67,374.69 595.44,374.83 596.21,374.96 596.98,375.09 597.76,375.22 598.53,375.34 599.30,375.46 600.07,375.58 600.84,375.69 601.61,375.80 602.38,375.91 603.16,376.02 603.93,376.12 604.70,376.22 605.47,376.32 606.24,376.41 607.01,376.51 607.79,376.60 608.56,376.69 609.33,376.77 610.10,376.85 610.87,376.94 611.64,377.01 612.41,377.09 613.19,377.17 613.96,377.24 614.73,377.31 615.50,377.38 616.27,377.44 617.04,377.51 617.81,377.57 618.59,377.63 619.36,377.69 620.13,377.75 620.90,377.81 621.67,377.86 622.44,377.92 623.22,377.97 623.99,378.02 624.76,378.07 625.53,378.11 626.30,378.16 627.07,378.20 627.84,378.25 628.62,378.29 629.39,378.33 630.16,378.37 630.93,378.41 631.70,378.45 632.47,378.48 633.25,378.52 634.02,378.55 634.79,378.58 635.56,378.62 636.33,378.65 637.10,378.68 637.87,378.71 638.65,378.74 639.42,378.76 640.19,378.79 640.96,378.82 641.73,378.84 642.50,378.86 643.28,378.89 644.05,378.91 644.82,378.93 645.59,378.95 646.36,378.97 647.13,378.99 647.90,379.01 648.68,379.03 649.45,379.05 650.22,379.07 650.99,379.08 651.76,379.10 652.53,379.12 653.31,379.13 654.08,379.15 654.85,379.16 655.62,379.18 656.39,379.19 657.16,379.20 657.93,379.21 658.71,379.23 659.48,379.24 660.25,379.25 661.02,379.26 661.79,379.27 662.56,379.28 663.34,379.29 664.11,379.30 664.88,379.31 665.65,379.32 666.42,379.33 667.19,379.34 667.96,379.34 668.74,379.35 669.51,379.36 670.28,379.37 671.05,379.37 671.82,379.38 672.59,379.39 673.37,379.39 674.14,379.40 674.91,379.40 675.68,379.41 676.45,379.42 677.22,379.42 677.99,379.43 678.77,379.43 679.54,379.44 680.31,379.44 681.08,379.44 681.85,379.45 682.62,379.45 683.40,379.46 ' style='stroke-width: 2.13; stroke: #888888; stroke-linecap: butt;' clip-path='url(#cpMzUuNTd8NzE0LjUyfDQwMC41MXw2Mi4zOA==)' />
<line x1='380.85' y1='379.55' x2='380.85' y2='100.73' style='stroke-width: 2.13; stroke: #172F47; stroke-linecap: butt;' clip-path='url(#cpMzUuNTd8NzE0LjUyfDQwMC41MXw2Mi4zOA==)' />
<line x1='375.05' y1='88.93' x2='384.72' y2='88.93' style='stroke-width: 2.13; stroke-linecap: butt;' clip-path='url(#cpMzUuNTd8NzE0LjUyfDQwMC41MXw2Mi4zOA==)' />
<polygon points='378.37,91.24 384.72,88.93 378.37,86.62 ' style='stroke-width: 2.13; stroke-linecap: butt; fill: #000000;' clip-path='url(#cpMzUuNTd8NzE0LjUyfDQwMC41MXw2Mi4zOA==)' />
<g clip-path='url(#cpMzUuNTd8NzE0LjUyfDQwMC41MXw2Mi4zOA==)'><text x='359.78' y='81.70' style='font-size: 11.04px; font-family: Arial;' textLength='40.21px' lengthAdjust='spacingAndGlyphs'>d = 0.13</text></g>
<line x1='35.57' y1='379.55' x2='714.52' y2='379.55' style='stroke-width: 2.13; stroke-linecap: butt;' clip-path='url(#cpMzUuNTd8NzE0LjUyfDQwMC41MXw2Mi4zOA==)' />
<rect x='35.57' y='62.38' width='678.95' height='338.13' style='stroke-width: 1.07; stroke: #333333;' clip-path='url(#cpMzUuNTd8NzE0LjUyfDQwMC41MXw2Mi4zOA==)' />
<defs>
  <clipPath id='cpMC4wMHw3MjAuMDB8NDMyLjAwfDAuMDA='>
    <rect x='0.00' y='0.00' width='720.00' height='432.00' />
  </clipPath>
</defs>
<g clip-path='url(#cpMC4wMHw3MjAuMDB8NDMyLjAwfDAuMDA=)'><text x='18.41' y='382.70' style='font-size: 8.80px; fill: #4D4D4D; font-family: Arial;' textLength='12.23px' lengthAdjust='spacingAndGlyphs'>0.0</text></g>
<g clip-path='url(#cpMC4wMHw3MjAuMDB8NDMyLjAwfDAuMDA=)'><text x='18.41' y='312.65' style='font-size: 8.80px; fill: #4D4D4D; font-family: Arial;' textLength='12.23px' lengthAdjust='spacingAndGlyphs'>0.1</text></g>
<g clip-path='url(#cpMC4wMHw3MjAuMDB8NDMyLjAwfDAuMDA=)'><text x='18.41' y='242.61' style='font-size: 8.80px; fill: #4D4D4D; font-family: Arial;' textLength='12.23px' lengthAdjust='spacingAndGlyphs'>0.2</text></g>
<g clip-path='url(#cpMC4wMHw3MjAuMDB8NDMyLjAwfDAuMDA=)'><text x='18.41' y='172.56' style='font-size: 8.80px; fill: #4D4D4D; font-family: Arial;' textLength='12.23px' lengthAdjust='spacingAndGlyphs'>0.3</text></g>
<g clip-path='url(#cpMC4wMHw3MjAuMDB8NDMyLjAwfDAuMDA=)'><text x='18.41' y='102.52' style='font-size: 8.80px; fill: #4D4D4D; font-family: Arial;' textLength='12.23px' lengthAdjust='spacingAndGlyphs'>0.4</text></g>
<polyline points='32.83,379.55 35.57,379.55 ' style='stroke-width: 1.07; stroke: #333333; stroke-linecap: butt;' clip-path='url(#cpMC4wMHw3MjAuMDB8NDMyLjAwfDAuMDA=)' />
<polyline points='32.83,309.50 35.57,309.50 ' style='stroke-width: 1.07; stroke: #333333; stroke-linecap: butt;' clip-path='url(#cpMC4wMHw3MjAuMDB8NDMyLjAwfDAuMDA=)' />
<polyline points='32.83,239.46 35.57,239.46 ' style='stroke-width: 1.07; stroke: #333333; stroke-linecap: butt;' clip-path='url(#cpMC4wMHw3MjAuMDB8NDMyLjAwfDAuMDA=)' />
<polyline points='32.83,169.41 35.57,169.41 ' style='stroke-width: 1.07; stroke: #333333; stroke-linecap: butt;' clip-path='url(#cpMC4wMHw3MjAuMDB8NDMyLjAwfDAuMDA=)' />
<polyline points='32.83,99.37 35.57,99.37 ' style='stroke-width: 1.07; stroke: #333333; stroke-linecap: butt;' clip-path='url(#cpMC4wMHw3MjAuMDB8NDMyLjAwfDAuMDA=)' />
<polyline points='66.43,403.25 66.43,400.51 ' style='stroke-width: 1.07; stroke: #333333; stroke-linecap: butt;' clip-path='url(#cpMC4wMHw3MjAuMDB8NDMyLjAwfDAuMDA=)' />
<polyline points='220.74,403.25 220.74,400.51 ' style='stroke-width: 1.07; stroke: #333333; stroke-linecap: butt;' clip-path='url(#cpMC4wMHw3MjAuMDB8NDMyLjAwfDAuMDA=)' />
<polyline points='375.05,403.25 375.05,400.51 ' style='stroke-width: 1.07; stroke: #333333; stroke-linecap: butt;' clip-path='url(#cpMC4wMHw3MjAuMDB8NDMyLjAwfDAuMDA=)' />
<polyline points='529.35,403.25 529.35,400.51 ' style='stroke-width: 1.07; stroke: #333333; stroke-linecap: butt;' clip-path='url(#cpMC4wMHw3MjAuMDB8NDMyLjAwfDAuMDA=)' />
<polyline points='683.66,403.25 683.66,400.51 ' style='stroke-width: 1.07; stroke: #333333; stroke-linecap: butt;' clip-path='url(#cpMC4wMHw3MjAuMDB8NDMyLjAwfDAuMDA=)' />
<g clip-path='url(#cpMC4wMHw3MjAuMDB8NDMyLjAwfDAuMDA=)'><text x='62.52' y='411.74' style='font-size: 8.80px; fill: #4D4D4D; font-family: Arial;' textLength='7.82px' lengthAdjust='spacingAndGlyphs'>-4</text></g>
<g clip-path='url(#cpMC4wMHw3MjAuMDB8NDMyLjAwfDAuMDA=)'><text x='216.83' y='411.74' style='font-size: 8.80px; fill: #4D4D4D; font-family: Arial;' textLength='7.82px' lengthAdjust='spacingAndGlyphs'>-2</text></g>
<g clip-path='url(#cpMC4wMHw3MjAuMDB8NDMyLjAwfDAuMDA=)'><text x='372.60' y='411.74' style='font-size: 8.80px; fill: #4D4D4D; font-family: Arial;' textLength='4.89px' lengthAdjust='spacingAndGlyphs'>0</text></g>
<g clip-path='url(#cpMC4wMHw3MjAuMDB8NDMyLjAwfDAuMDA=)'><text x='526.91' y='411.74' style='font-size: 8.80px; fill: #4D4D4D; font-family: Arial;' textLength='4.89px' lengthAdjust='spacingAndGlyphs'>2</text></g>
<g clip-path='url(#cpMC4wMHw3MjAuMDB8NDMyLjAwfDAuMDA=)'><text x='681.21' y='411.74' style='font-size: 8.80px; fill: #4D4D4D; font-family: Arial;' textLength='4.89px' lengthAdjust='spacingAndGlyphs'>4</text></g>
<g clip-path='url(#cpMC4wMHw3MjAuMDB8NDMyLjAwfDAuMDA=)'><text x='324.60' y='424.21' style='font-size: 11.00px; font-family: Arial;' textLength='100.90px' lengthAdjust='spacingAndGlyphs'>Continuous outcome</text></g>
<g clip-path='url(#cpMC4wMHw3MjAuMDB8NDMyLjAwfDAuMDA=)'><text transform='translate(13.35,249.79) rotate(-90)' style='font-size: 11.00px; font-family: Arial;' textLength='36.68px' lengthAdjust='spacingAndGlyphs'>Density</text></g>
<rect x='290.46' y='23.19' width='169.17' height='28.24' style='stroke-width: 1.07; stroke: none; fill: #FFFFFF;' clip-path='url(#cpMC4wMHw3MjAuMDB8NDMyLjAwfDAuMDA=)' />
<rect x='301.42' y='28.67' width='17.28' height='17.28' style='stroke-width: 1.07; stroke: none; fill: #FFFFFF;' clip-path='url(#cpMC4wMHw3MjAuMDB8NDMyLjAwfDAuMDA=)' />
<rect x='302.84' y='30.08' width='14.45' height='14.45' style='stroke-width: 2.13; stroke: #888888; stroke-linecap: square; stroke-linejoin: miter; fill: #EBF2F8; fill-opacity: 0.66;' clip-path='url(#cpMC4wMHw3MjAuMDB8NDMyLjAwfDAuMDA=)' />
<rect x='302.84' y='30.08' width='14.45' height='14.45' style='stroke-width: 2.13; stroke: #888888; stroke-linecap: square; stroke-linejoin: miter; fill: #EBF2F8; fill-opacity: 0.66;' clip-path='url(#cpMC4wMHw3MjAuMDB8NDMyLjAwfDAuMDA=)' />
<rect x='385.66' y='28.67' width='17.28' height='17.28' style='stroke-width: 1.07; stroke: none; fill: #FFFFFF;' clip-path='url(#cpMC4wMHw3MjAuMDB8NDMyLjAwfDAuMDA=)' />
<rect x='387.08' y='30.08' width='14.45' height='14.45' style='stroke-width: 2.13; stroke-linecap: square; stroke-linejoin: miter; fill: #172F47; fill-opacity: 0.66;' clip-path='url(#cpMC4wMHw3MjAuMDB8NDMyLjAwfDAuMDA=)' />
<rect x='387.08' y='30.08' width='14.45' height='14.45' style='stroke-width: 2.13; stroke-linecap: square; stroke-linejoin: miter; fill: #172F47; fill-opacity: 0.66;' clip-path='url(#cpMC4wMHw3MjAuMDB8NDMyLjAwfDAuMDA=)' />
<g clip-path='url(#cpMC4wMHw3MjAuMDB8NDMyLjAwfDAuMDA=)'><text x='324.18' y='40.45' style='font-size: 8.80px; font-family: Arial;' textLength='56.00px' lengthAdjust='spacingAndGlyphs'>CER = 47%    </text></g>
<g clip-path='url(#cpMC4wMHw3MjAuMDB8NDMyLjAwfDAuMDA=)'><text x='408.42' y='40.45' style='font-size: 8.80px; font-family: Arial;' textLength='45.74px' lengthAdjust='spacingAndGlyphs'>EER = 52%</text></g>
<g clip-path='url(#cpMC4wMHw3MjAuMDB8NDMyLjAwfDAuMDA=)'><text x='35.57' y='14.93' style='font-size: 13.20px; font-family: Arial;' textLength='364.97px' lengthAdjust='spacingAndGlyphs'>Cohen's d corresponding to an MCD of 5% with a CER of 47%</text></g>
</svg>
